# MagicaVoxel @ Ephtracy

# group
o 

# material
mtllib heart.mtl
usemtl palette

# normals
vn -1 0 0
vn 1 0 0
vn 0 0 1
vn 0 0 -1
vn 0 -1 0
vn 0 1 0

# texcoords
vt 0.306641 0.5

# verts
v 1 3.3 -1.8
v 1 3.3 -2
v 1 3.4 -1.8
v 1 3.4 -2
v 1.1 3 -1.8
v 1.1 3 -2
v 1.1 3.1 -1.7
v 1.1 3.1 -1.8
v 1.1 3.1 -2
v 1.1 3.1 -2.1
v 1.1 3.3 -1.8
v 1.1 3.3 -2
v 1.1 3.4 -1.8
v 1.1 3.4 -2
v 1.1 3.5 -1.7
v 1.1 3.5 -1.8
v 1.1 3.5 -2
v 1.1 3.5 -2.1
v 1.1 3.6 -1.8
v 1.1 3.6 -2
v 1.2 2.9 -1.7
v 1.2 2.9 -2.1
v 1.2 3 -1.8
v 1.2 3 -2
v 1.2 3.1 -1.6
v 1.2 3.1 -1.7
v 1.2 3.1 -1.8
v 1.2 3.1 -2
v 1.2 3.1 -2.1
v 1.2 3.1 -2.2
v 1.2 3.4 -1.6
v 1.2 3.4 -1.7
v 1.2 3.4 -2.1
v 1.2 3.4 -2.2
v 1.2 3.5 -1.7
v 1.2 3.5 -1.8
v 1.2 3.6 -1.7
v 1.2 3.6 -1.8
v 1.2 3.6 -2
v 1.2 3.7 -1.8
v 1.2 3.7 -2
v 1.3 2.8 -1.7
v 1.3 2.8 -2.1
v 1.3 2.9 -1.7
v 1.3 2.9 -2.1
v 1.3 3 -1.6
v 1.3 3 -1.7
v 1.3 3 -2.1
v 1.3 3 -2.2
v 1.3 3.1 -1.5
v 1.3 3.1 -1.6
v 1.3 3.1 -1.7
v 1.3 3.1 -2.1
v 1.3 3.1 -2.2
v 1.3 3.4 -1.6
v 1.3 3.4 -1.7
v 1.3 3.6 -1.5
v 1.3 3.6 -1.7
v 1.3 3.6 -1.8
v 1.3 3.7 -1.7
v 1.3 3.7 -1.8
v 1.3 3.7 -2
v 1.3 3.8 -1.8
v 1.3 3.8 -2
v 1.4 2.7 -1.7
v 1.4 2.7 -2.1
v 1.4 2.8 -1.7
v 1.4 2.8 -2.1
v 1.4 2.9 -1.6
v 1.4 2.9 -1.7
v 1.4 2.9 -2.1
v 1.4 2.9 -2.2
v 1.4 3 -1.5
v 1.4 3 -1.6
v 1.4 3 -1.7
v 1.4 3 -2.1
v 1.4 3 -2.2
v 1.4 3.1 -1.5
v 1.4 3.1 -1.6
v 1.4 3.3 -1.4
v 1.4 3.3 -1.5
v 1.4 3.6 -1.4
v 1.4 3.6 -1.5
v 1.4 3.6 -1.7
v 1.4 3.7 -1.5
v 1.4 3.7 -1.7
v 1.4 3.7 -1.8
v 1.4 3.7 -2
v 1.4 3.7 -2.1
v 1.4 3.8 -1.7
v 1.4 3.8 -1.8
v 1.4 3.8 -2
v 1.4 3.8 -2.1
v 1.5 2.6 -1.7
v 1.5 2.6 -2.1
v 1.5 2.7 -1.7
v 1.5 2.7 -2.1
v 1.5 2.8 -1.6
v 1.5 2.8 -1.7
v 1.5 2.8 -2.1
v 1.5 2.8 -2.2
v 1.5 2.9 -1.6
v 1.5 2.9 -1.7
v 1.5 2.9 -2.1
v 1.5 2.9 -2.2
v 1.5 3.2 -1.4
v 1.5 3.2 -1.5
v 1.5 3.3 -1.4
v 1.5 3.3 -1.5
v 1.5 3.6 -1.4
v 1.5 3.6 -1.5
v 1.5 3.6 -2.1
v 1.5 3.6 -2.2
v 1.5 3.7 -1.4
v 1.5 3.7 -1.5
v 1.5 3.7 -1.7
v 1.5 3.7 -2.1
v 1.5 3.7 -2.2
v 1.5 3.8 -1.5
v 1.5 3.8 -1.7
v 1.5 3.8 -1.8
v 1.5 3.8 -1.9
v 1.5 3.9 -1.8
v 1.5 3.9 -1.9
v 1.6 2 -1.5
v 1.6 2 -2.3
v 1.6 2.1 -1.5
v 1.6 2.1 -2.3
v 1.6 2.5 -1.8
v 1.6 2.5 -2
v 1.6 2.6 -1.8
v 1.6 2.6 -2
v 1.6 2.7 -1.6
v 1.6 2.7 -1.7
v 1.6 2.7 -2.1
v 1.6 2.7 -2.2
v 1.6 2.8 -1.6
v 1.6 2.8 -1.7
v 1.6 2.8 -2.1
v 1.6 2.8 -2.2
v 1.6 2.9 -1.5
v 1.6 2.9 -1.6
v 1.6 3 -1.4
v 1.6 3 -1.5
v 1.6 3 -1.6
v 1.6 3.2 -1.4
v 1.6 3.2 -1.5
v 1.6 3.8 -1.7
v 1.6 3.8 -1.8
v 1.6 3.9 -1.7
v 1.6 3.9 -1.8
v 1.7 2.4 -1.8
v 1.7 2.4 -2
v 1.7 2.5 -1.7
v 1.7 2.5 -1.8
v 1.7 2.5 -2
v 1.7 2.5 -2.1
v 1.7 2.6 -1.6
v 1.7 2.6 -1.7
v 1.7 2.6 -1.8
v 1.7 2.6 -2
v 1.7 2.6 -2.1
v 1.7 2.7 -1.6
v 1.7 2.7 -1.7
v 1.7 2.8 -1.5
v 1.7 2.8 -1.6
v 1.7 2.9 -1.5
v 1.7 2.9 -1.6
v 1.8 2.3 -1.8
v 1.8 2.3 -2
v 1.8 2.4 -1.7
v 1.8 2.4 -1.8
v 1.8 2.4 -2
v 1.8 2.4 -2.1
v 1.8 2.5 -1.7
v 1.8 2.5 -1.8
v 1.8 2.5 -2
v 1.8 2.5 -2.1
v 1.8 3.6 -1.5
v 1.8 3.6 -2.1
v 1.8 3.7 -1.5
v 1.8 3.7 -2.1
v 1.9 2.1 -1.8
v 1.9 2.1 -2
v 1.9 2.3 -1.7
v 1.9 2.3 -1.8
v 1.9 2.3 -2
v 1.9 2.3 -2.1
v 1.9 2.4 -1.7
v 1.9 2.4 -1.8
v 1.9 2.4 -2
v 1.9 2.4 -2.1
v 1.9 2.5 -1.6
v 1.9 2.5 -1.7
v 1.9 2.5 -2.1
v 1.9 2.5 -2.2
v 1.9 2.6 -1.6
v 1.9 2.6 -1.7
v 1.9 2.6 -2.1
v 1.9 2.7 -1.5
v 1.9 2.7 -1.6
v 1.9 2.7 -2.2
v 1.9 2.7 -2.3
v 1.9 2.8 -1.5
v 1.9 2.8 -1.6
v 1.9 2.8 -2.1
v 1.9 2.8 -2.2
v 1.9 2.9 -1.4
v 1.9 2.9 -1.5
v 1.9 2.9 -2.2
v 1.9 2.9 -2.3
v 1.9 3 -1.4
v 1.9 3 -1.5
v 1.9 3.5 -1.5
v 1.9 3.5 -1.6
v 1.9 3.6 -1.5
v 1.9 3.6 -1.6
v 1.9 3.7 -1.6
v 1.9 3.7 -2
v 1.9 3.8 -1.6
v 1.9 3.8 -2
v 2.1 3.6 -1.4
v 2.1 3.6 -1.5
v 2.1 3.6 -1.7
v 2.1 3.6 -2
v 2.1 3.6 -2.1
v 2.1 3.6 -2.2
v 2.1 3.7 -1.4
v 2.1 3.7 -1.5
v 2.1 3.7 -1.7
v 2.1 3.7 -2
v 2.1 3.7 -2.1
v 2.1 3.7 -2.2
v 2.2 2.5 -1.8
v 2.2 2.5 -2
v 2.2 2.6 -1.8
v 2.2 2.6 -2
v 2.2 2.6 -2.1
v 2.2 2.7 -2
v 2.2 2.7 -2.1
v 2.2 3.7 -1.5
v 2.2 3.7 -2.1
v 2.2 3.8 -1.5
v 2.2 3.8 -2.1
v 2.3 2.6 -1.8
v 2.3 2.6 -2
v 2.3 2.7 -1.7
v 2.3 2.7 -1.8
v 2.3 2.7 -2
v 2.3 2.7 -2.1
v 2.3 2.8 -1.6
v 2.3 2.8 -1.7
v 2.3 2.8 -2.1
v 2.3 2.9 -1.6
v 2.3 2.9 -1.7
v 2.3 3 -1.5
v 2.3 3 -1.6
v 2.3 3.1 -1.5
v 2.3 3.1 -1.6
v 2.3 3.8 -1.7
v 2.3 3.8 -1.9
v 2.3 3.9 -1.7
v 2.3 3.9 -1.9
v 2.4 2.8 -1.7
v 2.4 2.8 -2.1
v 2.4 2.9 -1.6
v 2.4 2.9 -1.7
v 2.4 2.9 -2.1
v 2.4 3 -1.6
v 2.4 3 -1.7
v 2.4 3.1 -1.5
v 2.4 3.1 -1.6
v 2.4 3.2 -1.5
v 2.4 3.2 -1.6
v 2.4 3.6 -1.5
v 2.4 3.6 -1.6
v 2.4 3.7 -1.5
v 2.4 3.7 -1.6
v 2.5 3 -1.6
v 2.5 3 -1.7
v 2.5 3.1 -1.6
v 2.5 3.1 -1.7
v 2.5 3.2 -1.5
v 2.5 3.2 -1.6
v 2.5 3.3 -1.5
v 2.5 3.3 -1.6
v 2.5 3.6 -1.6
v 2.5 3.6 -1.7
v 2.5 3.7 -1.6
v 2.5 3.7 -1.7
v 2.6 2.9 -1.7
v 2.6 2.9 -2.1
v 2.6 3 -1.7
v 2.6 3 -2.1
v 2.6 3.1 -1.6
v 2.6 3.1 -1.7
v 2.6 3.2 -1.6
v 2.6 3.2 -1.7
v 2.6 3.3 -1.5
v 2.6 3.3 -1.6
v 2.6 3.4 -1.6
v 2.6 3.4 -1.7
v 2.6 3.6 -1.5
v 2.6 3.6 -1.7
v 2.6 3.6 -1.9
v 2.6 3.7 -1.7
v 2.6 3.7 -1.9
v 2.7 3 -1.7
v 2.7 3 -2.1
v 2.7 3.1 -1.7
v 2.7 3.1 -2.1
v 2.7 3.2 -1.6
v 2.7 3.2 -1.7
v 2.7 3.4 -1.6
v 2.7 3.4 -1.7
v 2.7 3.4 -1.8
v 2.7 3.5 -1.8
v 2.7 3.5 -2
v 2.7 3.6 -1.7
v 2.7 3.6 -1.9
v 2.7 3.7 -1.9
v 2.7 3.7 -2
v 2.8 3.1 -1.7
v 2.8 3.1 -2.1
v 2.8 3.4 -1.7
v 2.8 3.4 -1.8
v 2.8 3.5 -1.8
v 2.8 3.5 -2
v 2.8 3.5 -2.1
v 1.2 3.1 -1.7
v 1.2 3.1 -2.1
v 1.2 3.3 -2
v 1.2 3.3 -2.1
v 1.2 3.4 -1.7
v 1.2 3.4 -1.8
v 1.2 3.4 -2
v 1.2 3.4 -2.1
v 1.2 3.5 -1.8
v 1.2 3.5 -2
v 1.2 3.5 -2.1
v 1.3 3 -1.8
v 1.3 3 -2.1
v 1.3 3.1 -1.8
v 1.3 3.1 -2.1
v 1.3 3.2 -2.1
v 1.3 3.2 -2.2
v 1.3 3.3 -2
v 1.3 3.3 -2.1
v 1.3 3.4 -2
v 1.3 3.4 -2.2
v 1.4 2.9 -1.7
v 1.4 2.9 -2.1
v 1.4 3 -1.8
v 1.4 3 -2.1
v 1.4 3.1 -1.6
v 1.4 3.1 -1.7
v 1.4 3.1 -1.8
v 1.4 3.1 -2.1
v 1.4 3.1 -2.2
v 1.4 3.2 -2.1
v 1.4 3.2 -2.2
v 1.4 3.3 -1.5
v 1.4 3.3 -1.6
v 1.4 3.4 -1.7
v 1.4 3.4 -1.8
v 1.4 3.5 -1.8
v 1.4 3.5 -2
v 1.4 3.6 -1.5
v 1.4 3.6 -2
v 1.5 2.8 -1.7
v 1.5 2.8 -2.1
v 1.5 2.9 -1.7
v 1.5 2.9 -2.1
v 1.5 3 -1.6
v 1.5 3 -1.7
v 1.5 3 -2.1
v 1.5 3 -2.2
v 1.5 3.1 -1.6
v 1.5 3.1 -1.7
v 1.5 3.1 -2.1
v 1.5 3.1 -2.2
v 1.5 3.2 -1.5
v 1.5 3.2 -1.6
v 1.5 3.3 -1.5
v 1.5 3.3 -1.6
v 1.5 3.6 -1.5
v 1.5 3.6 -2
v 1.5 3.7 -1.5
v 1.5 3.7 -2
v 1.6 2.7 -1.8
v 1.6 2.7 -2.1
v 1.6 2.8 -1.8
v 1.6 2.8 -2.1
v 1.6 2.9 -1.6
v 1.6 2.9 -1.7
v 1.6 2.9 -2.1
v 1.6 2.9 -2.2
v 1.6 3 -1.5
v 1.6 3 -1.6
v 1.6 3 -1.7
v 1.6 3 -2.1
v 1.6 3 -2.2
v 1.6 3.2 -1.5
v 1.6 3.2 -1.6
v 1.7 2.6 -1.9
v 1.7 2.6 -2
v 1.7 2.7 -1.7
v 1.7 2.7 -1.8
v 1.7 2.7 -1.9
v 1.7 2.7 -2
v 1.7 2.7 -2.1
v 1.7 2.7 -2.2
v 1.7 2.8 -1.7
v 1.7 2.8 -1.8
v 1.7 2.9 -2.1
v 1.7 2.9 -2.2
v 1.7 3.8 -1.7
v 1.7 3.8 -1.9
v 1.7 3.9 -1.7
v 1.7 3.9 -1.9
v 1.8 2.5 -1.8
v 1.8 2.5 -2
v 1.8 2.6 -1.9
v 1.8 2.6 -2
v 1.8 2.6 -2.1
v 1.8 2.7 -1.8
v 1.8 2.7 -1.9
v 1.8 2.7 -2
v 1.8 2.7 -2.1
v 1.8 3.7 -1.5
v 1.8 3.7 -2.1
v 1.8 3.8 -1.5
v 1.8 3.8 -2.1
v 1.9 3.6 -1.4
v 1.9 3.6 -1.5
v 1.9 3.6 -1.7
v 1.9 3.6 -2
v 1.9 3.6 -2.1
v 1.9 3.6 -2.2
v 1.9 3.7 -1.4
v 1.9 3.7 -1.5
v 1.9 3.7 -1.7
v 1.9 3.7 -2
v 1.9 3.7 -2.1
v 1.9 3.7 -2.2
v 2.1 2.1 -1.8
v 2.1 2.1 -2
v 2.1 2.3 -1.7
v 2.1 2.3 -1.8
v 2.1 2.3 -2
v 2.1 2.3 -2.1
v 2.1 2.4 -1.7
v 2.1 2.4 -1.8
v 2.1 2.4 -2
v 2.1 2.4 -2.1
v 2.1 2.5 -1.6
v 2.1 2.5 -1.7
v 2.1 2.5 -2.1
v 2.1 2.5 -2.2
v 2.1 2.6 -1.6
v 2.1 2.6 -1.7
v 2.1 2.6 -2.1
v 2.1 2.7 -1.5
v 2.1 2.7 -1.6
v 2.1 2.7 -2.2
v 2.1 2.7 -2.3
v 2.1 2.8 -1.5
v 2.1 2.8 -1.6
v 2.1 2.8 -1.7
v 2.1 2.8 -2.1
v 2.1 2.8 -2.2
v 2.1 2.9 -1.4
v 2.1 2.9 -1.5
v 2.1 2.9 -1.6
v 2.1 2.9 -1.7
v 2.1 2.9 -2.2
v 2.1 2.9 -2.3
v 2.1 3 -1.4
v 2.1 3 -1.5
v 2.1 3.5 -1.5
v 2.1 3.5 -1.6
v 2.1 3.6 -1.5
v 2.1 3.6 -1.6
v 2.1 3.7 -1.6
v 2.1 3.7 -2
v 2.1 3.8 -1.6
v 2.1 3.8 -2
v 2.2 2.3 -1.8
v 2.2 2.3 -2
v 2.2 2.4 -1.7
v 2.2 2.4 -1.8
v 2.2 2.4 -2
v 2.2 2.4 -2.1
v 2.2 2.5 -1.7
v 2.2 2.5 -1.8
v 2.2 2.5 -2
v 2.2 2.5 -2.1
v 2.2 3.6 -1.6
v 2.2 3.6 -2.1
v 2.2 3.7 -1.6
v 2.2 3.7 -2.1
v 2.3 2.4 -1.8
v 2.3 2.4 -2
v 2.3 2.5 -1.7
v 2.3 2.5 -1.8
v 2.3 2.5 -2
v 2.3 2.5 -2.1
v 2.3 2.6 -1.6
v 2.3 2.6 -1.7
v 2.3 2.6 -1.8
v 2.3 2.6 -2
v 2.3 2.6 -2.1
v 2.3 2.7 -1.6
v 2.3 2.7 -1.7
v 2.3 2.8 -1.5
v 2.3 2.8 -1.6
v 2.3 2.9 -1.5
v 2.3 2.9 -1.6
v 2.3 3.6 -1.5
v 2.3 3.6 -1.6
v 2.3 3.7 -1.5
v 2.3 3.7 -1.6
v 2.4 2 -1.5
v 2.4 2 -2.3
v 2.4 2.1 -1.5
v 2.4 2.1 -2.3
v 2.4 2.5 -1.8
v 2.4 2.5 -2
v 2.4 2.6 -1.8
v 2.4 2.6 -2
v 2.4 2.7 -1.6
v 2.4 2.7 -1.7
v 2.4 2.8 -1.6
v 2.4 2.8 -1.7
v 2.4 2.9 -1.5
v 2.4 2.9 -1.6
v 2.4 3 -1.4
v 2.4 3 -1.5
v 2.4 3 -1.6
v 2.4 3.2 -1.4
v 2.4 3.2 -1.5
v 2.4 3.8 -1.7
v 2.4 3.8 -1.8
v 2.4 3.9 -1.7
v 2.4 3.9 -1.8
v 2.5 2.6 -1.7
v 2.5 2.6 -2.1
v 2.5 2.7 -1.7
v 2.5 2.7 -2.1
v 2.5 2.8 -1.6
v 2.5 2.8 -1.7
v 2.5 2.9 -1.6
v 2.5 2.9 -1.7
v 2.5 3.2 -1.4
v 2.5 3.2 -1.5
v 2.5 3.3 -1.4
v 2.5 3.3 -1.5
v 2.5 3.6 -1.4
v 2.5 3.6 -1.5
v 2.5 3.7 -1.4
v 2.5 3.7 -1.5
v 2.5 3.7 -1.7
v 2.5 3.8 -1.5
v 2.5 3.8 -1.7
v 2.5 3.8 -1.8
v 2.5 3.8 -1.9
v 2.5 3.9 -1.8
v 2.5 3.9 -1.9
v 2.6 2.7 -1.7
v 2.6 2.7 -2.1
v 2.6 2.8 -1.7
v 2.6 2.8 -2.1
v 2.6 2.9 -1.6
v 2.6 2.9 -1.7
v 2.6 3 -1.5
v 2.6 3 -1.6
v 2.6 3 -1.7
v 2.6 3.1 -1.5
v 2.6 3.1 -1.6
v 2.6 3.3 -1.4
v 2.6 3.3 -1.5
v 2.6 3.6 -1.4
v 2.6 3.6 -1.5
v 2.6 3.6 -1.7
v 2.6 3.6 -2.1
v 2.6 3.6 -2.2
v 2.6 3.7 -1.5
v 2.6 3.7 -1.7
v 2.6 3.7 -1.8
v 2.6 3.7 -2
v 2.6 3.7 -2.1
v 2.6 3.7 -2.2
v 2.6 3.8 -1.7
v 2.6 3.8 -1.8
v 2.6 3.8 -2
v 2.6 3.8 -2.1
v 2.7 2.8 -1.7
v 2.7 2.8 -2.1
v 2.7 2.9 -1.7
v 2.7 2.9 -2.1
v 2.7 3 -1.6
v 2.7 3 -1.7
v 2.7 3.1 -1.5
v 2.7 3.1 -1.6
v 2.7 3.1 -1.7
v 2.7 3.4 -1.6
v 2.7 3.4 -1.7
v 2.7 3.6 -1.5
v 2.7 3.6 -1.7
v 2.7 3.6 -1.8
v 2.7 3.7 -1.7
v 2.7 3.7 -1.8
v 2.7 3.7 -2
v 2.7 3.8 -1.8
v 2.7 3.8 -2
v 2.8 2.9 -1.7
v 2.8 2.9 -2.1
v 2.8 3 -1.8
v 2.8 3 -2
v 2.8 3.1 -1.6
v 2.8 3.1 -1.7
v 2.8 3.1 -1.8
v 2.8 3.1 -2
v 2.8 3.1 -2.1
v 2.8 3.4 -1.6
v 2.8 3.4 -1.7
v 2.8 3.5 -1.7
v 2.8 3.5 -1.8
v 2.8 3.6 -1.7
v 2.8 3.6 -1.8
v 2.8 3.6 -2
v 2.8 3.7 -1.8
v 2.8 3.7 -2
v 2.9 3 -1.8
v 2.9 3 -2
v 2.9 3.1 -1.7
v 2.9 3.1 -1.8
v 2.9 3.1 -2
v 2.9 3.1 -2.1
v 2.9 3.3 -1.8
v 2.9 3.3 -2
v 2.9 3.4 -1.8
v 2.9 3.4 -2
v 2.9 3.5 -1.7
v 2.9 3.5 -1.8
v 2.9 3.5 -2
v 2.9 3.5 -2.1
v 2.9 3.6 -1.8
v 2.9 3.6 -2
v 3 3.3 -1.8
v 3 3.3 -2
v 3 3.4 -1.8
v 3 3.4 -2
v 1.4 3.3 -1.4
v 1.4 3.6 -1.4
v 1.5 3.2 -1.4
v 1.5 3.3 -1.4
v 1.5 3.6 -1.4
v 1.5 3.7 -1.4
v 1.6 3 -1.4
v 1.6 3.2 -1.4
v 1.9 2.9 -1.4
v 1.9 3 -1.4
v 1.9 3.6 -1.4
v 1.9 3.7 -1.4
v 2.1 2.9 -1.4
v 2.1 3 -1.4
v 2.1 3.6 -1.4
v 2.1 3.7 -1.4
v 2.4 3 -1.4
v 2.4 3.2 -1.4
v 2.5 3.2 -1.4
v 2.5 3.3 -1.4
v 2.5 3.6 -1.4
v 2.5 3.7 -1.4
v 2.6 3.3 -1.4
v 2.6 3.6 -1.4
v 1.3 3.1 -1.5
v 1.3 3.6 -1.5
v 1.4 3 -1.5
v 1.4 3.1 -1.5
v 1.4 3.3 -1.5
v 1.4 3.6 -1.5
v 1.4 3.7 -1.5
v 1.5 3.2 -1.5
v 1.5 3.3 -1.5
v 1.5 3.6 -1.5
v 1.5 3.7 -1.5
v 1.5 3.8 -1.5
v 1.6 2 -1.5
v 1.6 2.1 -1.5
v 1.6 2.9 -1.5
v 1.6 3 -1.5
v 1.6 3.2 -1.5
v 1.7 2.8 -1.5
v 1.7 2.9 -1.5
v 1.8 3.7 -1.5
v 1.8 3.8 -1.5
v 1.9 2.7 -1.5
v 1.9 2.8 -1.5
v 1.9 2.9 -1.5
v 1.9 3 -1.5
v 1.9 3.6 -1.5
v 1.9 3.7 -1.5
v 2.1 2.7 -1.5
v 2.1 2.8 -1.5
v 2.1 2.9 -1.5
v 2.1 3 -1.5
v 2.1 3.6 -1.5
v 2.1 3.7 -1.5
v 2.2 3.7 -1.5
v 2.2 3.8 -1.5
v 2.3 2.8 -1.5
v 2.3 2.9 -1.5
v 2.4 2 -1.5
v 2.4 2.1 -1.5
v 2.4 2.9 -1.5
v 2.4 3 -1.5
v 2.4 3.2 -1.5
v 2.5 3.2 -1.5
v 2.5 3.3 -1.5
v 2.5 3.6 -1.5
v 2.5 3.7 -1.5
v 2.5 3.8 -1.5
v 2.6 3 -1.5
v 2.6 3.1 -1.5
v 2.6 3.3 -1.5
v 2.6 3.6 -1.5
v 2.6 3.7 -1.5
v 2.7 3.1 -1.5
v 2.7 3.6 -1.5
v 1.2 3.1 -1.6
v 1.2 3.4 -1.6
v 1.3 3 -1.6
v 1.3 3.1 -1.6
v 1.3 3.4 -1.6
v 1.4 2.9 -1.6
v 1.4 3 -1.6
v 1.4 3.1 -1.6
v 1.5 2.8 -1.6
v 1.5 2.9 -1.6
v 1.6 2.7 -1.6
v 1.6 2.8 -1.6
v 1.6 2.9 -1.6
v 1.6 3 -1.6
v 1.7 2.6 -1.6
v 1.7 2.7 -1.6
v 1.7 2.8 -1.6
v 1.7 2.9 -1.6
v 1.9 2.5 -1.6
v 1.9 2.6 -1.6
v 1.9 2.7 -1.6
v 1.9 2.8 -1.6
v 1.9 3.7 -1.6
v 1.9 3.8 -1.6
v 2.1 2.5 -1.6
v 2.1 2.6 -1.6
v 2.1 2.7 -1.6
v 2.1 2.8 -1.6
v 2.1 3.7 -1.6
v 2.1 3.8 -1.6
v 2.3 2.6 -1.6
v 2.3 2.7 -1.6
v 2.3 2.8 -1.6
v 2.3 2.9 -1.6
v 2.4 2.7 -1.6
v 2.4 2.8 -1.6
v 2.4 2.9 -1.6
v 2.4 3 -1.6
v 2.5 2.8 -1.6
v 2.5 2.9 -1.6
v 2.6 2.9 -1.6
v 2.6 3 -1.6
v 2.6 3.1 -1.6
v 2.7 3 -1.6
v 2.7 3.1 -1.6
v 2.7 3.4 -1.6
v 2.8 3.1 -1.6
v 2.8 3.4 -1.6
v 1.1 3.1 -1.7
v 1.1 3.5 -1.7
v 1.2 2.9 -1.7
v 1.2 3.1 -1.7
v 1.2 3.4 -1.7
v 1.2 3.5 -1.7
v 1.2 3.6 -1.7
v 1.3 2.8 -1.7
v 1.3 2.9 -1.7
v 1.3 3 -1.7
v 1.3 3.1 -1.7
v 1.3 3.4 -1.7
v 1.3 3.6 -1.7
v 1.3 3.7 -1.7
v 1.4 2.7 -1.7
v 1.4 2.8 -1.7
v 1.4 2.9 -1.7
v 1.4 3 -1.7
v 1.4 3.6 -1.7
v 1.4 3.7 -1.7
v 1.4 3.8 -1.7
v 1.5 2.6 -1.7
v 1.5 2.7 -1.7
v 1.5 2.8 -1.7
v 1.5 2.9 -1.7
v 1.5 3.7 -1.7
v 1.5 3.8 -1.7
v 1.6 2.7 -1.7
v 1.6 2.8 -1.7
v 1.6 3.8 -1.7
v 1.6 3.9 -1.7
v 1.7 2.5 -1.7
v 1.7 2.6 -1.7
v 1.7 2.7 -1.7
v 1.7 3.8 -1.7
v 1.7 3.9 -1.7
v 1.8 2.4 -1.7
v 1.8 2.5 -1.7
v 1.9 2.3 -1.7
v 1.9 2.4 -1.7
v 1.9 2.5 -1.7
v 1.9 2.6 -1.7
v 2.1 2.3 -1.7
v 2.1 2.4 -1.7
v 2.1 2.5 -1.7
v 2.1 2.6 -1.7
v 2.2 2.4 -1.7
v 2.2 2.5 -1.7
v 2.3 2.5 -1.7
v 2.3 2.6 -1.7
v 2.3 2.7 -1.7
v 2.3 3.8 -1.7
v 2.3 3.9 -1.7
v 2.4 2.7 -1.7
v 2.4 2.8 -1.7
v 2.4 3.8 -1.7
v 2.4 3.9 -1.7
v 2.5 2.6 -1.7
v 2.5 2.7 -1.7
v 2.5 2.8 -1.7
v 2.5 2.9 -1.7
v 2.5 3.7 -1.7
v 2.5 3.8 -1.7
v 2.6 2.7 -1.7
v 2.6 2.8 -1.7
v 2.6 2.9 -1.7
v 2.6 3 -1.7
v 2.6 3.6 -1.7
v 2.6 3.7 -1.7
v 2.6 3.8 -1.7
v 2.7 2.8 -1.7
v 2.7 2.9 -1.7
v 2.7 3 -1.7
v 2.7 3.1 -1.7
v 2.7 3.4 -1.7
v 2.7 3.6 -1.7
v 2.7 3.7 -1.7
v 2.8 2.9 -1.7
v 2.8 3.1 -1.7
v 2.8 3.4 -1.7
v 2.8 3.5 -1.7
v 2.8 3.6 -1.7
v 2.9 3.1 -1.7
v 2.9 3.5 -1.7
v 1 3.3 -1.8
v 1 3.4 -1.8
v 1.1 3 -1.8
v 1.1 3.1 -1.8
v 1.1 3.3 -1.8
v 1.1 3.4 -1.8
v 1.1 3.5 -1.8
v 1.1 3.6 -1.8
v 1.2 3 -1.8
v 1.2 3.1 -1.8
v 1.2 3.5 -1.8
v 1.2 3.6 -1.8
v 1.2 3.7 -1.8
v 1.3 3.6 -1.8
v 1.3 3.7 -1.8
v 1.3 3.8 -1.8
v 1.4 3.7 -1.8
v 1.4 3.8 -1.8
v 1.5 3.8 -1.8
v 1.5 3.9 -1.8
v 1.6 2.5 -1.8
v 1.6 2.6 -1.8
v 1.6 3.8 -1.8
v 1.6 3.9 -1.8
v 1.7 2.4 -1.8
v 1.7 2.5 -1.8
v 1.7 2.6 -1.8
v 1.8 2.3 -1.8
v 1.8 2.4 -1.8
v 1.8 2.5 -1.8
v 1.9 2.1 -1.8
v 1.9 2.3 -1.8
v 1.9 2.4 -1.8
v 2.1 2.1 -1.8
v 2.1 2.3 -1.8
v 2.1 2.4 -1.8
v 2.2 2.3 -1.8
v 2.2 2.4 -1.8
v 2.2 2.5 -1.8
v 2.3 2.4 -1.8
v 2.3 2.5 -1.8
v 2.3 2.6 -1.8
v 2.4 2.5 -1.8
v 2.4 2.6 -1.8
v 2.4 3.8 -1.8
v 2.4 3.9 -1.8
v 2.5 3.8 -1.8
v 2.5 3.9 -1.8
v 2.6 3.7 -1.8
v 2.6 3.8 -1.8
v 2.7 3.6 -1.8
v 2.7 3.7 -1.8
v 2.7 3.8 -1.8
v 2.8 3 -1.8
v 2.8 3.1 -1.8
v 2.8 3.5 -1.8
v 2.8 3.6 -1.8
v 2.8 3.7 -1.8
v 2.9 3 -1.8
v 2.9 3.1 -1.8
v 2.9 3.3 -1.8
v 2.9 3.4 -1.8
v 2.9 3.5 -1.8
v 2.9 3.6 -1.8
v 3 3.3 -1.8
v 3 3.4 -1.8
v 1.2 3.3 -2
v 1.2 3.4 -2
v 1.3 3.3 -2
v 1.3 3.4 -2
v 1.7 2.6 -2
v 1.7 2.7 -2
v 1.8 2.5 -2
v 1.8 2.6 -2
v 1.8 2.7 -2
v 1.9 3.6 -2
v 1.9 3.7 -2
v 2.1 3.6 -2
v 2.1 3.7 -2
v 2.2 2.5 -2
v 2.2 2.6 -2
v 2.2 2.7 -2
v 2.3 2.6 -2
v 2.3 2.7 -2
v 1.2 3.1 -2.1
v 1.2 3.3 -2.1
v 1.3 3 -2.1
v 1.3 3.1 -2.1
v 1.3 3.2 -2.1
v 1.3 3.3 -2.1
v 1.4 2.9 -2.1
v 1.4 3 -2.1
v 1.4 3.1 -2.1
v 1.4 3.2 -2.1
v 1.5 2.8 -2.1
v 1.5 2.9 -2.1
v 1.5 3 -2.1
v 1.5 3.1 -2.1
v 1.5 3.6 -2.1
v 1.5 3.7 -2.1
v 1.6 2.7 -2.1
v 1.6 2.8 -2.1
v 1.6 2.9 -2.1
v 1.6 3 -2.1
v 1.7 2.7 -2.1
v 1.7 2.9 -2.1
v 1.8 3.6 -2.1
v 1.8 3.7 -2.1
v 1.9 2.6 -2.1
v 1.9 2.8 -2.1
v 2.1 2.6 -2.1
v 2.1 2.8 -2.1
v 2.2 3.6 -2.1
v 2.2 3.7 -2.1
v 2.6 3.6 -2.1
v 2.6 3.7 -2.1
v 1.9 2.8 -2.2
v 1.9 2.9 -2.2
v 2.1 2.8 -2.2
v 2.1 2.9 -2.2
v 1.4 3.3 -1.5
v 1.4 3.6 -1.5
v 1.5 3.2 -1.5
v 1.5 3.3 -1.5
v 1.5 3.6 -1.5
v 1.5 3.7 -1.5
v 1.6 3 -1.5
v 1.6 3.2 -1.5
v 1.8 3.6 -1.5
v 1.8 3.7 -1.5
v 1.9 3.5 -1.5
v 1.9 3.6 -1.5
v 2.1 3.5 -1.5
v 2.1 3.6 -1.5
v 2.3 3 -1.5
v 2.3 3.1 -1.5
v 2.3 3.6 -1.5
v 2.3 3.7 -1.5
v 2.4 3.1 -1.5
v 2.4 3.2 -1.5
v 2.4 3.6 -1.5
v 2.4 3.7 -1.5
v 2.5 3.2 -1.5
v 2.5 3.3 -1.5
v 2.6 3.3 -1.5
v 2.6 3.6 -1.5
v 1.4 3.1 -1.6
v 1.4 3.3 -1.6
v 1.5 3 -1.6
v 1.5 3.1 -1.6
v 1.5 3.2 -1.6
v 1.5 3.3 -1.6
v 1.6 2.9 -1.6
v 1.6 3 -1.6
v 1.6 3.2 -1.6
v 1.9 3.5 -1.6
v 1.9 3.6 -1.6
v 2.1 2.8 -1.6
v 2.1 2.9 -1.6
v 2.1 3.5 -1.6
v 2.1 3.6 -1.6
v 2.2 3.6 -1.6
v 2.2 3.7 -1.6
v 2.3 2.8 -1.6
v 2.3 2.9 -1.6
v 2.3 3 -1.6
v 2.3 3.1 -1.6
v 2.3 3.6 -1.6
v 2.3 3.7 -1.6
v 2.4 2.9 -1.6
v 2.4 3 -1.6
v 2.4 3.1 -1.6
v 2.4 3.2 -1.6
v 2.4 3.6 -1.6
v 2.4 3.7 -1.6
v 2.5 3 -1.6
v 2.5 3.1 -1.6
v 2.5 3.2 -1.6
v 2.5 3.3 -1.6
v 2.5 3.6 -1.6
v 2.5 3.7 -1.6
v 2.6 3.1 -1.6
v 2.6 3.2 -1.6
v 2.6 3.3 -1.6
v 2.6 3.4 -1.6
v 2.7 3.2 -1.6
v 2.7 3.4 -1.6
v 1.2 3.1 -1.7
v 1.2 3.4 -1.7
v 1.4 2.9 -1.7
v 1.4 3.1 -1.7
v 1.4 3.4 -1.7
v 1.5 2.8 -1.7
v 1.5 2.9 -1.7
v 1.5 3 -1.7
v 1.5 3.1 -1.7
v 1.6 2.9 -1.7
v 1.6 3 -1.7
v 1.7 2.7 -1.7
v 1.7 2.8 -1.7
v 1.9 3.6 -1.7
v 1.9 3.7 -1.7
v 2.1 2.8 -1.7
v 2.1 2.9 -1.7
v 2.1 3.6 -1.7
v 2.1 3.7 -1.7
v 2.3 2.7 -1.7
v 2.3 2.8 -1.7
v 2.3 2.9 -1.7
v 2.4 2.8 -1.7
v 2.4 2.9 -1.7
v 2.4 3 -1.7
v 2.5 3 -1.7
v 2.5 3.1 -1.7
v 2.5 3.6 -1.7
v 2.5 3.7 -1.7
v 2.6 2.9 -1.7
v 2.6 3 -1.7
v 2.6 3.1 -1.7
v 2.6 3.2 -1.7
v 2.6 3.4 -1.7
v 2.6 3.6 -1.7
v 2.6 3.7 -1.7
v 2.7 3 -1.7
v 2.7 3.1 -1.7
v 2.7 3.2 -1.7
v 2.7 3.4 -1.7
v 2.7 3.6 -1.7
v 2.8 3.1 -1.7
v 2.8 3.4 -1.7
v 1.2 3.4 -1.8
v 1.2 3.5 -1.8
v 1.3 3 -1.8
v 1.3 3.1 -1.8
v 1.4 3 -1.8
v 1.4 3.1 -1.8
v 1.4 3.4 -1.8
v 1.4 3.5 -1.8
v 1.6 2.7 -1.8
v 1.6 2.8 -1.8
v 1.7 2.7 -1.8
v 1.7 2.8 -1.8
v 1.8 2.5 -1.8
v 1.8 2.7 -1.8
v 2.2 2.5 -1.8
v 2.2 2.6 -1.8
v 2.3 2.6 -1.8
v 2.3 2.7 -1.8
v 2.7 3.4 -1.8
v 2.7 3.5 -1.8
v 2.8 3.4 -1.8
v 2.8 3.5 -1.8
v 1.5 3.8 -1.9
v 1.5 3.9 -1.9
v 1.7 2.6 -1.9
v 1.7 2.7 -1.9
v 1.7 3.8 -1.9
v 1.7 3.9 -1.9
v 1.8 2.6 -1.9
v 1.8 2.7 -1.9
v 2.3 3.8 -1.9
v 2.3 3.9 -1.9
v 2.5 3.8 -1.9
v 2.5 3.9 -1.9
v 2.6 3.6 -1.9
v 2.6 3.7 -1.9
v 2.7 3.6 -1.9
v 2.7 3.7 -1.9
v 1 3.3 -2
v 1 3.4 -2
v 1.1 3 -2
v 1.1 3.1 -2
v 1.1 3.3 -2
v 1.1 3.4 -2
v 1.1 3.5 -2
v 1.1 3.6 -2
v 1.2 3 -2
v 1.2 3.1 -2
v 1.2 3.5 -2
v 1.2 3.6 -2
v 1.2 3.7 -2
v 1.3 3.7 -2
v 1.3 3.8 -2
v 1.4 3.5 -2
v 1.4 3.6 -2
v 1.4 3.7 -2
v 1.4 3.8 -2
v 1.5 3.6 -2
v 1.5 3.7 -2
v 1.6 2.5 -2
v 1.6 2.6 -2
v 1.7 2.4 -2
v 1.7 2.5 -2
v 1.7 2.6 -2
v 1.8 2.3 -2
v 1.8 2.4 -2
v 1.8 2.5 -2
v 1.9 2.1 -2
v 1.9 2.3 -2
v 1.9 2.4 -2
v 1.9 3.7 -2
v 1.9 3.8 -2
v 2.1 2.1 -2
v 2.1 2.3 -2
v 2.1 2.4 -2
v 2.1 3.7 -2
v 2.1 3.8 -2
v 2.2 2.3 -2
v 2.2 2.4 -2
v 2.2 2.5 -2
v 2.3 2.4 -2
v 2.3 2.5 -2
v 2.3 2.6 -2
v 2.4 2.5 -2
v 2.4 2.6 -2
v 2.6 3.7 -2
v 2.6 3.8 -2
v 2.7 3.5 -2
v 2.7 3.7 -2
v 2.7 3.8 -2
v 2.8 3 -2
v 2.8 3.1 -2
v 2.8 3.5 -2
v 2.8 3.6 -2
v 2.8 3.7 -2
v 2.9 3 -2
v 2.9 3.1 -2
v 2.9 3.3 -2
v 2.9 3.4 -2
v 2.9 3.5 -2
v 2.9 3.6 -2
v 3 3.3 -2
v 3 3.4 -2
v 1.1 3.1 -2.1
v 1.1 3.5 -2.1
v 1.2 2.9 -2.1
v 1.2 3.1 -2.1
v 1.2 3.4 -2.1
v 1.2 3.5 -2.1
v 1.3 2.8 -2.1
v 1.3 2.9 -2.1
v 1.3 3 -2.1
v 1.3 3.1 -2.1
v 1.4 2.7 -2.1
v 1.4 2.8 -2.1
v 1.4 2.9 -2.1
v 1.4 3 -2.1
v 1.4 3.7 -2.1
v 1.4 3.8 -2.1
v 1.5 2.6 -2.1
v 1.5 2.7 -2.1
v 1.5 2.8 -2.1
v 1.5 2.9 -2.1
v 1.5 3.7 -2.1
v 1.6 2.7 -2.1
v 1.6 2.8 -2.1
v 1.7 2.5 -2.1
v 1.7 2.6 -2.1
v 1.7 2.7 -2.1
v 1.8 2.4 -2.1
v 1.8 2.5 -2.1
v 1.8 2.6 -2.1
v 1.8 2.7 -2.1
v 1.8 3.7 -2.1
v 1.8 3.8 -2.1
v 1.9 2.3 -2.1
v 1.9 2.4 -2.1
v 1.9 2.5 -2.1
v 1.9 2.6 -2.1
v 1.9 3.6 -2.1
v 1.9 3.7 -2.1
v 2.1 2.3 -2.1
v 2.1 2.4 -2.1
v 2.1 2.5 -2.1
v 2.1 2.6 -2.1
v 2.1 3.6 -2.1
v 2.1 3.7 -2.1
v 2.2 2.4 -2.1
v 2.2 2.5 -2.1
v 2.2 2.6 -2.1
v 2.2 2.7 -2.1
v 2.2 3.7 -2.1
v 2.2 3.8 -2.1
v 2.3 2.5 -2.1
v 2.3 2.6 -2.1
v 2.3 2.7 -2.1
v 2.3 2.8 -2.1
v 2.4 2.8 -2.1
v 2.4 2.9 -2.1
v 2.5 2.6 -2.1
v 2.5 2.7 -2.1
v 2.6 2.7 -2.1
v 2.6 2.8 -2.1
v 2.6 2.9 -2.1
v 2.6 3 -2.1
v 2.6 3.7 -2.1
v 2.6 3.8 -2.1
v 2.7 2.8 -2.1
v 2.7 2.9 -2.1
v 2.7 3 -2.1
v 2.7 3.1 -2.1
v 2.8 2.9 -2.1
v 2.8 3.1 -2.1
v 2.8 3.5 -2.1
v 2.9 3.1 -2.1
v 2.9 3.5 -2.1
v 1.2 3.1 -2.2
v 1.2 3.4 -2.2
v 1.3 3 -2.2
v 1.3 3.1 -2.2
v 1.3 3.2 -2.2
v 1.3 3.4 -2.2
v 1.4 2.9 -2.2
v 1.4 3 -2.2
v 1.4 3.1 -2.2
v 1.4 3.2 -2.2
v 1.5 2.8 -2.2
v 1.5 2.9 -2.2
v 1.5 3 -2.2
v 1.5 3.1 -2.2
v 1.5 3.6 -2.2
v 1.5 3.7 -2.2
v 1.6 2.7 -2.2
v 1.6 2.8 -2.2
v 1.6 2.9 -2.2
v 1.6 3 -2.2
v 1.7 2.7 -2.2
v 1.7 2.9 -2.2
v 1.9 2.5 -2.2
v 1.9 2.7 -2.2
v 1.9 3.6 -2.2
v 1.9 3.7 -2.2
v 2.1 2.5 -2.2
v 2.1 2.7 -2.2
v 2.1 3.6 -2.2
v 2.1 3.7 -2.2
v 2.6 3.6 -2.2
v 2.6 3.7 -2.2
v 1.6 2 -2.3
v 1.6 2.1 -2.3
v 1.9 2.7 -2.3
v 1.9 2.9 -2.3
v 2.1 2.7 -2.3
v 2.1 2.9 -2.3
v 2.4 2 -2.3
v 2.4 2.1 -2.3
v 1.6 2 -1.5
v 2.4 2 -1.5
v 1.6 2 -2.3
v 2.4 2 -2.3
v 1.9 2.3 -1.7
v 2.1 2.3 -1.7
v 1.8 2.3 -1.8
v 1.9 2.3 -1.8
v 2.1 2.3 -1.8
v 2.2 2.3 -1.8
v 1.8 2.3 -2
v 1.9 2.3 -2
v 2.1 2.3 -2
v 2.2 2.3 -2
v 1.9 2.3 -2.1
v 2.1 2.3 -2.1
v 1.8 2.4 -1.7
v 1.9 2.4 -1.7
v 2.1 2.4 -1.7
v 2.2 2.4 -1.7
v 1.7 2.4 -1.8
v 1.8 2.4 -1.8
v 1.9 2.4 -1.8
v 2.1 2.4 -1.8
v 2.2 2.4 -1.8
v 2.3 2.4 -1.8
v 1.7 2.4 -2
v 1.8 2.4 -2
v 1.9 2.4 -2
v 2.1 2.4 -2
v 2.2 2.4 -2
v 2.3 2.4 -2
v 1.8 2.4 -2.1
v 1.9 2.4 -2.1
v 2.1 2.4 -2.1
v 2.2 2.4 -2.1
v 1.9 2.5 -1.6
v 2.1 2.5 -1.6
v 1.7 2.5 -1.7
v 1.8 2.5 -1.7
v 1.9 2.5 -1.7
v 2.1 2.5 -1.7
v 2.2 2.5 -1.7
v 2.3 2.5 -1.7
v 1.6 2.5 -1.8
v 1.7 2.5 -1.8
v 1.8 2.5 -1.8
v 2.2 2.5 -1.8
v 2.3 2.5 -1.8
v 2.4 2.5 -1.8
v 1.6 2.5 -2
v 1.7 2.5 -2
v 1.8 2.5 -2
v 2.2 2.5 -2
v 2.3 2.5 -2
v 2.4 2.5 -2
v 1.7 2.5 -2.1
v 1.8 2.5 -2.1
v 1.9 2.5 -2.1
v 2.1 2.5 -2.1
v 2.2 2.5 -2.1
v 2.3 2.5 -2.1
v 1.9 2.5 -2.2
v 2.1 2.5 -2.2
v 1.7 2.6 -1.6
v 1.9 2.6 -1.6
v 2.1 2.6 -1.6
v 2.3 2.6 -1.6
v 1.5 2.6 -1.7
v 1.7 2.6 -1.7
v 1.9 2.6 -1.7
v 2.1 2.6 -1.7
v 2.3 2.6 -1.7
v 2.5 2.6 -1.7
v 1.6 2.6 -1.8
v 1.7 2.6 -1.8
v 2.3 2.6 -1.8
v 2.4 2.6 -1.8
v 1.6 2.6 -2
v 1.7 2.6 -2
v 2.3 2.6 -2
v 2.4 2.6 -2
v 1.5 2.6 -2.1
v 1.7 2.6 -2.1
v 2.3 2.6 -2.1
v 2.5 2.6 -2.1
v 1.9 2.7 -1.5
v 2.1 2.7 -1.5
v 1.6 2.7 -1.6
v 1.7 2.7 -1.6
v 1.9 2.7 -1.6
v 2.1 2.7 -1.6
v 2.3 2.7 -1.6
v 2.4 2.7 -1.6
v 1.4 2.7 -1.7
v 1.5 2.7 -1.7
v 1.6 2.7 -1.7
v 1.7 2.7 -1.7
v 2.3 2.7 -1.7
v 2.4 2.7 -1.7
v 2.5 2.7 -1.7
v 2.6 2.7 -1.7
v 1.4 2.7 -2.1
v 1.5 2.7 -2.1
v 1.6 2.7 -2.1
v 1.7 2.7 -2.1
v 2.5 2.7 -2.1
v 2.6 2.7 -2.1
v 1.6 2.7 -2.2
v 1.7 2.7 -2.2
v 1.9 2.7 -2.2
v 2.1 2.7 -2.2
v 1.9 2.7 -2.3
v 2.1 2.7 -2.3
v 1.7 2.8 -1.5
v 1.9 2.8 -1.5
v 2.1 2.8 -1.5
v 2.3 2.8 -1.5
v 1.5 2.8 -1.6
v 1.6 2.8 -1.6
v 1.7 2.8 -1.6
v 1.9 2.8 -1.6
v 2.1 2.8 -1.6
v 2.3 2.8 -1.6
v 2.4 2.8 -1.6
v 2.5 2.8 -1.6
v 1.3 2.8 -1.7
v 1.4 2.8 -1.7
v 1.5 2.8 -1.7
v 1.6 2.8 -1.7
v 2.4 2.8 -1.7
v 2.5 2.8 -1.7
v 2.6 2.8 -1.7
v 2.7 2.8 -1.7
v 1.3 2.8 -2.1
v 1.4 2.8 -2.1
v 1.5 2.8 -2.1
v 1.6 2.8 -2.1
v 2.6 2.8 -2.1
v 2.7 2.8 -2.1
v 1.5 2.8 -2.2
v 1.6 2.8 -2.2
v 1.9 2.9 -1.4
v 2.1 2.9 -1.4
v 1.6 2.9 -1.5
v 1.7 2.9 -1.5
v 1.9 2.9 -1.5
v 2.1 2.9 -1.5
v 2.3 2.9 -1.5
v 2.4 2.9 -1.5
v 1.4 2.9 -1.6
v 1.5 2.9 -1.6
v 1.6 2.9 -1.6
v 1.7 2.9 -1.6
v 2.3 2.9 -1.6
v 2.4 2.9 -1.6
v 2.5 2.9 -1.6
v 2.6 2.9 -1.6
v 1.2 2.9 -1.7
v 1.3 2.9 -1.7
v 1.4 2.9 -1.7
v 1.5 2.9 -1.7
v 2.5 2.9 -1.7
v 2.6 2.9 -1.7
v 2.7 2.9 -1.7
v 2.8 2.9 -1.7
v 1.2 2.9 -2.1
v 1.3 2.9 -2.1
v 1.4 2.9 -2.1
v 1.5 2.9 -2.1
v 2.7 2.9 -2.1
v 2.8 2.9 -2.1
v 1.4 2.9 -2.2
v 1.5 2.9 -2.2
v 1.6 3 -1.4
v 1.9 3 -1.4
v 2.1 3 -1.4
v 2.4 3 -1.4
v 1.4 3 -1.5
v 1.6 3 -1.5
v 1.9 3 -1.5
v 2.1 3 -1.5
v 2.4 3 -1.5
v 2.6 3 -1.5
v 1.3 3 -1.6
v 1.4 3 -1.6
v 1.6 3 -1.6
v 2.4 3 -1.6
v 2.6 3 -1.6
v 2.7 3 -1.6
v 1.3 3 -1.7
v 1.4 3 -1.7
v 2.6 3 -1.7
v 2.7 3 -1.7
v 1.1 3 -1.8
v 1.2 3 -1.8
v 2.8 3 -1.8
v 2.9 3 -1.8
v 1.1 3 -2
v 1.2 3 -2
v 2.8 3 -2
v 2.9 3 -2
v 1.3 3 -2.1
v 1.4 3 -2.1
v 1.3 3 -2.2
v 1.4 3 -2.2
v 1.3 3.1 -1.5
v 1.4 3.1 -1.5
v 2.6 3.1 -1.5
v 2.7 3.1 -1.5
v 1.2 3.1 -1.6
v 1.3 3.1 -1.6
v 1.4 3.1 -1.6
v 2.6 3.1 -1.6
v 2.7 3.1 -1.6
v 2.8 3.1 -1.6
v 1.1 3.1 -1.7
v 1.2 3.1 -1.7
v 1.3 3.1 -1.7
v 2.7 3.1 -1.7
v 2.8 3.1 -1.7
v 2.9 3.1 -1.7
v 1.1 3.1 -1.8
v 1.2 3.1 -1.8
v 2.8 3.1 -1.8
v 2.9 3.1 -1.8
v 1.1 3.1 -2
v 1.2 3.1 -2
v 2.8 3.1 -2
v 2.9 3.1 -2
v 1.1 3.1 -2.1
v 1.2 3.1 -2.1
v 1.3 3.1 -2.1
v 2.8 3.1 -2.1
v 2.9 3.1 -2.1
v 1.2 3.1 -2.2
v 1.3 3.1 -2.2
v 1.5 3.2 -1.4
v 1.6 3.2 -1.4
v 2.4 3.2 -1.4
v 2.5 3.2 -1.4
v 1.5 3.2 -1.5
v 1.6 3.2 -1.5
v 2.4 3.2 -1.5
v 2.5 3.2 -1.5
v 1.4 3.3 -1.4
v 1.5 3.3 -1.4
v 2.5 3.3 -1.4
v 2.6 3.3 -1.4
v 1.4 3.3 -1.5
v 1.5 3.3 -1.5
v 2.5 3.3 -1.5
v 2.6 3.3 -1.5
v 1 3.3 -1.8
v 1.1 3.3 -1.8
v 2.9 3.3 -1.8
v 3 3.3 -1.8
v 1 3.3 -2
v 1.1 3.3 -2
v 1.2 3.3 -2
v 1.3 3.3 -2
v 2.9 3.3 -2
v 3 3.3 -2
v 1.2 3.3 -2.1
v 1.3 3.3 -2.1
v 2.6 3.4 -1.6
v 2.7 3.4 -1.6
v 1.2 3.4 -1.7
v 1.4 3.4 -1.7
v 2.6 3.4 -1.7
v 2.7 3.4 -1.7
v 2.8 3.4 -1.7
v 1.2 3.4 -1.8
v 1.4 3.4 -1.8
v 2.7 3.4 -1.8
v 2.8 3.4 -1.8
v 1.9 3.5 -1.5
v 2.1 3.5 -1.5
v 1.9 3.5 -1.6
v 2.1 3.5 -1.6
v 1.2 3.5 -1.8
v 1.4 3.5 -1.8
v 2.7 3.5 -1.8
v 2.8 3.5 -1.8
v 1.2 3.5 -2
v 1.4 3.5 -2
v 2.7 3.5 -2
v 2.8 3.5 -2
v 1.4 3.6 -1.5
v 1.5 3.6 -1.5
v 1.8 3.6 -1.5
v 1.9 3.6 -1.5
v 2.1 3.6 -1.5
v 2.3 3.6 -1.5
v 2.4 3.6 -1.5
v 2.6 3.6 -1.5
v 1.9 3.6 -1.6
v 2.1 3.6 -1.6
v 2.2 3.6 -1.6
v 2.3 3.6 -1.6
v 2.4 3.6 -1.6
v 2.5 3.6 -1.6
v 1.9 3.6 -1.7
v 2.1 3.6 -1.7
v 2.5 3.6 -1.7
v 2.6 3.6 -1.7
v 2.7 3.6 -1.7
v 2.6 3.6 -1.9
v 2.7 3.6 -1.9
v 1.4 3.6 -2
v 1.5 3.6 -2
v 1.9 3.6 -2
v 2.1 3.6 -2
v 1.5 3.6 -2.1
v 1.8 3.6 -2.1
v 1.9 3.6 -2.1
v 2.1 3.6 -2.1
v 2.2 3.6 -2.1
v 2.6 3.6 -2.1
v 1.5 3.6 -2.2
v 1.9 3.6 -2.2
v 2.1 3.6 -2.2
v 2.6 3.6 -2.2
v 1.5 3.7 -1.5
v 1.8 3.7 -1.5
v 2.3 3.7 -1.5
v 2.4 3.7 -1.5
v 2.2 3.7 -1.6
v 2.3 3.7 -1.6
v 2.4 3.7 -1.6
v 2.5 3.7 -1.6
v 1.9 3.7 -1.7
v 2.1 3.7 -1.7
v 2.5 3.7 -1.7
v 2.6 3.7 -1.7
v 2.6 3.7 -1.9
v 2.7 3.7 -1.9
v 1.4 3.7 -2
v 1.5 3.7 -2
v 1.9 3.7 -2
v 2.1 3.7 -2
v 2.6 3.7 -2
v 2.7 3.7 -2
v 1.4 3.7 -2.1
v 1.5 3.7 -2.1
v 1.8 3.7 -2.1
v 2.2 3.7 -2.1
v 2.6 3.7 -2.1
v 1.6 2.1 -1.5
v 2.4 2.1 -1.5
v 1.9 2.1 -1.8
v 2.1 2.1 -1.8
v 1.9 2.1 -2
v 2.1 2.1 -2
v 1.6 2.1 -2.3
v 2.4 2.1 -2.3
v 1.8 2.5 -1.8
v 2.2 2.5 -1.8
v 1.8 2.5 -2
v 2.2 2.5 -2
v 2.2 2.6 -1.8
v 2.3 2.6 -1.8
v 1.7 2.6 -1.9
v 1.8 2.6 -1.9
v 1.7 2.6 -2
v 1.8 2.6 -2
v 2.2 2.6 -2
v 2.3 2.6 -2
v 1.8 2.6 -2.1
v 1.9 2.6 -2.1
v 2.1 2.6 -2.1
v 2.2 2.6 -2.1
v 1.7 2.7 -1.7
v 2.3 2.7 -1.7
v 1.6 2.7 -1.8
v 1.7 2.7 -1.8
v 1.8 2.7 -1.8
v 2.3 2.7 -1.8
v 1.7 2.7 -1.9
v 1.8 2.7 -1.9
v 1.7 2.7 -2
v 1.8 2.7 -2
v 2.2 2.7 -2
v 2.3 2.7 -2
v 1.6 2.7 -2.1
v 1.7 2.7 -2.1
v 1.8 2.7 -2.1
v 2.2 2.7 -2.1
v 2.3 2.7 -2.1
v 2.1 2.8 -1.6
v 2.3 2.8 -1.6
v 1.5 2.8 -1.7
v 1.7 2.8 -1.7
v 2.1 2.8 -1.7
v 2.3 2.8 -1.7
v 2.4 2.8 -1.7
v 1.6 2.8 -1.8
v 1.7 2.8 -1.8
v 1.5 2.8 -2.1
v 1.6 2.8 -2.1
v 1.9 2.8 -2.1
v 2.1 2.8 -2.1
v 2.3 2.8 -2.1
v 2.4 2.8 -2.1
v 1.9 2.8 -2.2
v 2.1 2.8 -2.2
v 1.6 2.9 -1.6
v 2.1 2.9 -1.6
v 2.3 2.9 -1.6
v 2.4 2.9 -1.6
v 1.4 2.9 -1.7
v 1.5 2.9 -1.7
v 1.6 2.9 -1.7
v 2.1 2.9 -1.7
v 2.3 2.9 -1.7
v 2.4 2.9 -1.7
v 2.6 2.9 -1.7
v 1.4 2.9 -2.1
v 1.5 2.9 -2.1
v 1.6 2.9 -2.1
v 1.7 2.9 -2.1
v 2.4 2.9 -2.1
v 2.6 2.9 -2.1
v 1.6 2.9 -2.2
v 1.7 2.9 -2.2
v 1.9 2.9 -2.2
v 2.1 2.9 -2.2
v 1.9 2.9 -2.3
v 2.1 2.9 -2.3
v 1.6 3 -1.5
v 2.3 3 -1.5
v 1.5 3 -1.6
v 1.6 3 -1.6
v 2.3 3 -1.6
v 2.4 3 -1.6
v 2.5 3 -1.6
v 1.5 3 -1.7
v 1.6 3 -1.7
v 2.4 3 -1.7
v 2.5 3 -1.7
v 2.6 3 -1.7
v 2.7 3 -1.7
v 1.3 3 -1.8
v 1.4 3 -1.8
v 1.3 3 -2.1
v 1.4 3 -2.1
v 1.5 3 -2.1
v 1.6 3 -2.1
v 2.6 3 -2.1
v 2.7 3 -2.1
v 1.5 3 -2.2
v 1.6 3 -2.2
v 2.3 3.1 -1.5
v 2.4 3.1 -1.5
v 1.4 3.1 -1.6
v 1.5 3.1 -1.6
v 2.3 3.1 -1.6
v 2.4 3.1 -1.6
v 2.5 3.1 -1.6
v 2.6 3.1 -1.6
v 1.2 3.1 -1.7
v 1.4 3.1 -1.7
v 1.5 3.1 -1.7
v 2.5 3.1 -1.7
v 2.6 3.1 -1.7
v 2.7 3.1 -1.7
v 2.8 3.1 -1.7
v 1.3 3.1 -1.8
v 1.4 3.1 -1.8
v 1.2 3.1 -2.1
v 1.3 3.1 -2.1
v 1.4 3.1 -2.1
v 1.5 3.1 -2.1
v 2.7 3.1 -2.1
v 2.8 3.1 -2.1
v 1.4 3.1 -2.2
v 1.5 3.1 -2.2
v 1.5 3.2 -1.5
v 1.6 3.2 -1.5
v 2.4 3.2 -1.5
v 2.5 3.2 -1.5
v 1.5 3.2 -1.6
v 1.6 3.2 -1.6
v 2.4 3.2 -1.6
v 2.5 3.2 -1.6
v 2.6 3.2 -1.6
v 2.7 3.2 -1.6
v 2.6 3.2 -1.7
v 2.7 3.2 -1.7
v 1.3 3.2 -2.1
v 1.4 3.2 -2.1
v 1.3 3.2 -2.2
v 1.4 3.2 -2.2
v 1.4 3.3 -1.5
v 1.5 3.3 -1.5
v 2.5 3.3 -1.5
v 2.6 3.3 -1.5
v 1.4 3.3 -1.6
v 1.5 3.3 -1.6
v 2.5 3.3 -1.6
v 2.6 3.3 -1.6
v 1.2 3.4 -1.6
v 1.3 3.4 -1.6
v 2.7 3.4 -1.6
v 2.8 3.4 -1.6
v 1.2 3.4 -1.7
v 1.3 3.4 -1.7
v 2.7 3.4 -1.7
v 2.8 3.4 -1.7
v 1 3.4 -1.8
v 1.1 3.4 -1.8
v 2.9 3.4 -1.8
v 3 3.4 -1.8
v 1 3.4 -2
v 1.1 3.4 -2
v 1.2 3.4 -2
v 1.3 3.4 -2
v 2.9 3.4 -2
v 3 3.4 -2
v 1.2 3.4 -2.1
v 1.2 3.4 -2.2
v 1.3 3.4 -2.2
v 1.1 3.5 -1.7
v 1.2 3.5 -1.7
v 2.8 3.5 -1.7
v 2.9 3.5 -1.7
v 1.1 3.5 -1.8
v 1.2 3.5 -1.8
v 2.8 3.5 -1.8
v 2.9 3.5 -1.8
v 1.1 3.5 -2
v 1.2 3.5 -2
v 2.8 3.5 -2
v 2.9 3.5 -2
v 1.1 3.5 -2.1
v 1.2 3.5 -2.1
v 2.8 3.5 -2.1
v 2.9 3.5 -2.1
v 1.4 3.6 -1.4
v 1.5 3.6 -1.4
v 1.9 3.6 -1.4
v 2.1 3.6 -1.4
v 2.5 3.6 -1.4
v 2.6 3.6 -1.4
v 1.3 3.6 -1.5
v 1.4 3.6 -1.5
v 1.5 3.6 -1.5
v 1.9 3.6 -1.5
v 2.1 3.6 -1.5
v 2.5 3.6 -1.5
v 2.6 3.6 -1.5
v 2.7 3.6 -1.5
v 1.2 3.6 -1.7
v 1.3 3.6 -1.7
v 1.4 3.6 -1.7
v 2.6 3.6 -1.7
v 2.7 3.6 -1.7
v 2.8 3.6 -1.7
v 1.1 3.6 -1.8
v 1.2 3.6 -1.8
v 1.3 3.6 -1.8
v 2.7 3.6 -1.8
v 2.8 3.6 -1.8
v 2.9 3.6 -1.8
v 1.1 3.6 -2
v 1.2 3.6 -2
v 2.8 3.6 -2
v 2.9 3.6 -2
v 1.5 3.7 -1.4
v 1.9 3.7 -1.4
v 2.1 3.7 -1.4
v 2.5 3.7 -1.4
v 1.4 3.7 -1.5
v 1.5 3.7 -1.5
v 1.8 3.7 -1.5
v 1.9 3.7 -1.5
v 2.1 3.7 -1.5
v 2.2 3.7 -1.5
v 2.5 3.7 -1.5
v 2.6 3.7 -1.5
v 1.9 3.7 -1.6
v 2.1 3.7 -1.6
v 1.3 3.7 -1.7
v 1.4 3.7 -1.7
v 1.5 3.7 -1.7
v 2.5 3.7 -1.7
v 2.6 3.7 -1.7
v 2.7 3.7 -1.7
v 1.2 3.7 -1.8
v 1.3 3.7 -1.8
v 1.4 3.7 -1.8
v 2.6 3.7 -1.8
v 2.7 3.7 -1.8
v 2.8 3.7 -1.8
v 1.2 3.7 -2
v 1.3 3.7 -2
v 1.9 3.7 -2
v 2.1 3.7 -2
v 2.7 3.7 -2
v 2.8 3.7 -2
v 1.5 3.7 -2.1
v 1.8 3.7 -2.1
v 1.9 3.7 -2.1
v 2.1 3.7 -2.1
v 2.2 3.7 -2.1
v 2.6 3.7 -2.1
v 1.5 3.7 -2.2
v 1.9 3.7 -2.2
v 2.1 3.7 -2.2
v 2.6 3.7 -2.2
v 1.5 3.8 -1.5
v 1.8 3.8 -1.5
v 2.2 3.8 -1.5
v 2.5 3.8 -1.5
v 1.9 3.8 -1.6
v 2.1 3.8 -1.6
v 1.4 3.8 -1.7
v 1.5 3.8 -1.7
v 1.6 3.8 -1.7
v 1.7 3.8 -1.7
v 2.3 3.8 -1.7
v 2.4 3.8 -1.7
v 2.5 3.8 -1.7
v 2.6 3.8 -1.7
v 1.3 3.8 -1.8
v 1.4 3.8 -1.8
v 1.5 3.8 -1.8
v 1.6 3.8 -1.8
v 2.4 3.8 -1.8
v 2.5 3.8 -1.8
v 2.6 3.8 -1.8
v 2.7 3.8 -1.8
v 1.5 3.8 -1.9
v 1.7 3.8 -1.9
v 2.3 3.8 -1.9
v 2.5 3.8 -1.9
v 1.3 3.8 -2
v 1.4 3.8 -2
v 1.9 3.8 -2
v 2.1 3.8 -2
v 2.6 3.8 -2
v 2.7 3.8 -2
v 1.4 3.8 -2.1
v 1.8 3.8 -2.1
v 2.2 3.8 -2.1
v 2.6 3.8 -2.1
v 1.6 3.9 -1.7
v 1.7 3.9 -1.7
v 2.3 3.9 -1.7
v 2.4 3.9 -1.7
v 1.5 3.9 -1.8
v 1.6 3.9 -1.8
v 2.4 3.9 -1.8
v 2.5 3.9 -1.8
v 1.5 3.9 -1.9
v 1.7 3.9 -1.9
v 2.3 3.9 -1.9
v 2.5 3.9 -1.9

# faces
f 3/1/1 2/1/1 1/1/1
f 4/1/1 2/1/1 3/1/1
f 8/1/1 6/1/1 5/1/1
f 9/1/1 6/1/1 8/1/1
f 11/1/1 8/1/1 7/1/1
f 11/1/1 10/1/1 9/1/1
f 11/1/1 9/1/1 8/1/1
f 12/1/1 10/1/1 11/1/1
f 13/1/1 11/1/1 7/1/1
f 14/1/1 10/1/1 12/1/1
f 15/1/1 13/1/1 7/1/1
f 15/1/1 14/1/1 13/1/1
f 16/1/1 14/1/1 15/1/1
f 17/1/1 10/1/1 14/1/1
f 17/1/1 14/1/1 16/1/1
f 18/1/1 10/1/1 17/1/1
f 19/1/1 17/1/1 16/1/1
f 20/1/1 17/1/1 19/1/1
f 23/1/1 22/1/1 21/1/1
f 24/1/1 22/1/1 23/1/1
f 26/1/1 23/1/1 21/1/1
f 27/1/1 23/1/1 26/1/1
f 28/1/1 22/1/1 24/1/1
f 29/1/1 22/1/1 28/1/1
f 31/1/1 26/1/1 25/1/1
f 32/1/1 26/1/1 31/1/1
f 33/1/1 30/1/1 29/1/1
f 34/1/1 30/1/1 33/1/1
f 37/1/1 36/1/1 35/1/1
f 38/1/1 36/1/1 37/1/1
f 40/1/1 39/1/1 38/1/1
f 41/1/1 39/1/1 40/1/1
f 44/1/1 43/1/1 42/1/1
f 45/1/1 43/1/1 44/1/1
f 51/1/1 47/1/1 46/1/1
f 52/1/1 47/1/1 51/1/1
f 53/1/1 49/1/1 48/1/1
f 54/1/1 49/1/1 53/1/1
f 55/1/1 51/1/1 50/1/1
f 57/1/1 55/1/1 50/1/1
f 57/1/1 56/1/1 55/1/1
f 58/1/1 56/1/1 57/1/1
f 60/1/1 59/1/1 58/1/1
f 61/1/1 59/1/1 60/1/1
f 63/1/1 62/1/1 61/1/1
f 64/1/1 62/1/1 63/1/1
f 67/1/1 66/1/1 65/1/1
f 68/1/1 66/1/1 67/1/1
f 74/1/1 70/1/1 69/1/1
f 75/1/1 70/1/1 74/1/1
f 76/1/1 72/1/1 71/1/1
f 77/1/1 72/1/1 76/1/1
f 78/1/1 74/1/1 73/1/1
f 79/1/1 74/1/1 78/1/1
f 82/1/1 81/1/1 80/1/1
f 83/1/1 81/1/1 82/1/1
f 85/1/1 84/1/1 83/1/1
f 86/1/1 84/1/1 85/1/1
f 90/1/1 87/1/1 86/1/1
f 91/1/1 87/1/1 90/1/1
f 92/1/1 89/1/1 88/1/1
f 93/1/1 89/1/1 92/1/1
f 96/1/1 95/1/1 94/1/1
f 97/1/1 95/1/1 96/1/1
f 102/1/1 99/1/1 98/1/1
f 103/1/1 99/1/1 102/1/1
f 104/1/1 101/1/1 100/1/1
f 105/1/1 101/1/1 104/1/1
f 108/1/1 107/1/1 106/1/1
f 109/1/1 107/1/1 108/1/1
f 114/1/1 111/1/1 110/1/1
f 115/1/1 111/1/1 114/1/1
f 117/1/1 113/1/1 112/1/1
f 118/1/1 113/1/1 117/1/1
f 119/1/1 116/1/1 115/1/1
f 120/1/1 116/1/1 119/1/1
f 123/1/1 122/1/1 121/1/1
f 124/1/1 122/1/1 123/1/1
f 127/1/1 126/1/1 125/1/1
f 128/1/1 126/1/1 127/1/1
f 131/1/1 130/1/1 129/1/1
f 132/1/1 130/1/1 131/1/1
f 137/1/1 134/1/1 133/1/1
f 138/1/1 134/1/1 137/1/1
f 139/1/1 136/1/1 135/1/1
f 140/1/1 136/1/1 139/1/1
f 144/1/1 142/1/1 141/1/1
f 145/1/1 142/1/1 144/1/1
f 146/1/1 144/1/1 143/1/1
f 147/1/1 144/1/1 146/1/1
f 150/1/1 149/1/1 148/1/1
f 151/1/1 149/1/1 150/1/1
f 155/1/1 153/1/1 152/1/1
f 156/1/1 153/1/1 155/1/1
f 159/1/1 155/1/1 154/1/1
f 160/1/1 155/1/1 159/1/1
f 161/1/1 157/1/1 156/1/1
f 162/1/1 157/1/1 161/1/1
f 163/1/1 159/1/1 158/1/1
f 164/1/1 159/1/1 163/1/1
f 167/1/1 166/1/1 165/1/1
f 168/1/1 166/1/1 167/1/1
f 172/1/1 170/1/1 169/1/1
f 173/1/1 170/1/1 172/1/1
f 175/1/1 172/1/1 171/1/1
f 176/1/1 172/1/1 175/1/1
f 177/1/1 174/1/1 173/1/1
f 178/1/1 174/1/1 177/1/1
f 181/1/1 180/1/1 179/1/1
f 182/1/1 180/1/1 181/1/1
f 186/1/1 184/1/1 183/1/1
f 187/1/1 184/1/1 186/1/1
f 189/1/1 186/1/1 185/1/1
f 190/1/1 186/1/1 189/1/1
f 191/1/1 188/1/1 187/1/1
f 192/1/1 188/1/1 191/1/1
f 197/1/1 194/1/1 193/1/1
f 198/1/1 194/1/1 197/1/1
f 199/1/1 196/1/1 195/1/1
f 202/1/1 196/1/1 199/1/1
f 204/1/1 201/1/1 200/1/1
f 205/1/1 201/1/1 204/1/1
f 206/1/1 203/1/1 202/1/1
f 206/1/1 202/1/1 199/1/1
f 207/1/1 203/1/1 206/1/1
f 210/1/1 203/1/1 207/1/1
f 211/1/1 203/1/1 210/1/1
f 212/1/1 209/1/1 208/1/1
f 213/1/1 209/1/1 212/1/1
f 216/1/1 215/1/1 214/1/1
f 217/1/1 215/1/1 216/1/1
f 220/1/1 219/1/1 218/1/1
f 221/1/1 219/1/1 220/1/1
f 228/1/1 223/1/1 222/1/1
f 229/1/1 223/1/1 228/1/1
f 230/1/1 225/1/1 224/1/1
f 231/1/1 225/1/1 230/1/1
f 232/1/1 227/1/1 226/1/1
f 233/1/1 227/1/1 232/1/1
f 236/1/1 235/1/1 234/1/1
f 237/1/1 235/1/1 236/1/1
f 239/1/1 238/1/1 237/1/1
f 240/1/1 238/1/1 239/1/1
f 243/1/1 242/1/1 241/1/1
f 244/1/1 242/1/1 243/1/1
f 248/1/1 246/1/1 245/1/1
f 249/1/1 246/1/1 248/1/1
f 252/1/1 248/1/1 247/1/1
f 252/1/1 250/1/1 249/1/1
f 252/1/1 249/1/1 248/1/1
f 253/1/1 250/1/1 252/1/1
f 254/1/1 252/1/1 251/1/1
f 255/1/1 252/1/1 254/1/1
f 258/1/1 257/1/1 256/1/1
f 259/1/1 257/1/1 258/1/1
f 262/1/1 261/1/1 260/1/1
f 263/1/1 261/1/1 262/1/1
f 267/1/1 265/1/1 264/1/1
f 268/1/1 265/1/1 267/1/1
f 269/1/1 267/1/1 266/1/1
f 270/1/1 267/1/1 269/1/1
f 273/1/1 272/1/1 271/1/1
f 274/1/1 272/1/1 273/1/1
f 277/1/1 276/1/1 275/1/1
f 278/1/1 276/1/1 277/1/1
f 281/1/1 280/1/1 279/1/1
f 282/1/1 280/1/1 281/1/1
f 285/1/1 284/1/1 283/1/1
f 286/1/1 284/1/1 285/1/1
f 289/1/1 288/1/1 287/1/1
f 290/1/1 288/1/1 289/1/1
f 293/1/1 292/1/1 291/1/1
f 294/1/1 292/1/1 293/1/1
f 297/1/1 296/1/1 295/1/1
f 298/1/1 296/1/1 297/1/1
f 301/1/1 300/1/1 299/1/1
f 303/1/1 301/1/1 299/1/1
f 303/1/1 302/1/1 301/1/1
f 304/1/1 302/1/1 303/1/1
f 306/1/1 305/1/1 304/1/1
f 307/1/1 305/1/1 306/1/1
f 310/1/1 309/1/1 308/1/1
f 311/1/1 309/1/1 310/1/1
f 314/1/1 313/1/1 312/1/1
f 315/1/1 313/1/1 314/1/1
f 317/1/1 316/1/1 315/1/1
f 319/1/1 317/1/1 315/1/1
f 319/1/1 318/1/1 317/1/1
f 320/1/1 318/1/1 319/1/1
f 321/1/1 318/1/1 320/1/1
f 322/1/1 318/1/1 321/1/1
f 325/1/1 324/1/1 323/1/1
f 326/1/1 324/1/1 325/1/1
f 327/1/1 324/1/1 326/1/1
f 328/1/1 324/1/1 327/1/1
f 329/1/1 324/1/1 328/1/1
f 330/1/2 331/1/2 332/1/2
f 332/1/2 331/1/2 333/1/2
f 330/1/2 332/1/2 334/1/2
f 334/1/2 332/1/2 335/1/2
f 335/1/2 332/1/2 336/1/2
f 336/1/2 337/1/2 338/1/2
f 335/1/2 336/1/2 338/1/2
f 338/1/2 337/1/2 339/1/2
f 339/1/2 337/1/2 340/1/2
f 341/1/2 342/1/2 343/1/2
f 343/1/2 342/1/2 344/1/2
f 345/1/2 346/1/2 348/1/2
f 347/1/2 348/1/2 349/1/2
f 348/1/2 346/1/2 350/1/2
f 349/1/2 348/1/2 350/1/2
f 351/1/2 352/1/2 353/1/2
f 353/1/2 352/1/2 354/1/2
f 351/1/2 353/1/2 356/1/2
f 356/1/2 353/1/2 357/1/2
f 358/1/2 359/1/2 360/1/2
f 360/1/2 359/1/2 361/1/2
f 355/1/2 356/1/2 363/1/2
f 363/1/2 356/1/2 364/1/2
f 362/1/2 363/1/2 364/1/2
f 364/1/2 365/1/2 366/1/2
f 362/1/2 364/1/2 368/1/2
f 366/1/2 367/1/2 368/1/2
f 364/1/2 366/1/2 368/1/2
f 368/1/2 367/1/2 369/1/2
f 370/1/2 371/1/2 372/1/2
f 372/1/2 371/1/2 373/1/2
f 374/1/2 375/1/2 378/1/2
f 378/1/2 375/1/2 379/1/2
f 376/1/2 377/1/2 380/1/2
f 380/1/2 377/1/2 381/1/2
f 382/1/2 383/1/2 384/1/2
f 384/1/2 383/1/2 385/1/2
f 386/1/2 387/1/2 388/1/2
f 388/1/2 387/1/2 389/1/2
f 390/1/2 391/1/2 392/1/2
f 392/1/2 391/1/2 393/1/2
f 394/1/2 395/1/2 399/1/2
f 399/1/2 395/1/2 400/1/2
f 396/1/2 397/1/2 401/1/2
f 401/1/2 397/1/2 402/1/2
f 398/1/2 399/1/2 403/1/2
f 403/1/2 399/1/2 404/1/2
f 405/1/2 406/1/2 409/1/2
f 409/1/2 406/1/2 410/1/2
f 407/1/2 408/1/2 413/1/2
f 413/1/2 408/1/2 414/1/2
f 411/1/2 412/1/2 415/1/2
f 415/1/2 412/1/2 416/1/2
f 417/1/2 418/1/2 419/1/2
f 419/1/2 418/1/2 420/1/2
f 421/1/2 422/1/2 423/1/2
f 423/1/2 422/1/2 424/1/2
f 421/1/2 423/1/2 426/1/2
f 426/1/2 423/1/2 427/1/2
f 424/1/2 425/1/2 428/1/2
f 428/1/2 425/1/2 429/1/2
f 430/1/2 431/1/2 432/1/2
f 432/1/2 431/1/2 433/1/2
f 434/1/2 435/1/2 440/1/2
f 440/1/2 435/1/2 441/1/2
f 436/1/2 437/1/2 442/1/2
f 442/1/2 437/1/2 443/1/2
f 438/1/2 439/1/2 444/1/2
f 444/1/2 439/1/2 445/1/2
f 446/1/2 447/1/2 449/1/2
f 449/1/2 447/1/2 450/1/2
f 448/1/2 449/1/2 452/1/2
f 452/1/2 449/1/2 453/1/2
f 450/1/2 451/1/2 454/1/2
f 454/1/2 451/1/2 455/1/2
f 456/1/2 457/1/2 460/1/2
f 460/1/2 457/1/2 461/1/2
f 458/1/2 459/1/2 462/1/2
f 462/1/2 459/1/2 465/1/2
f 463/1/2 464/1/2 467/1/2
f 467/1/2 464/1/2 468/1/2
f 465/1/2 466/1/2 470/1/2
f 462/1/2 465/1/2 470/1/2
f 470/1/2 466/1/2 471/1/2
f 468/1/2 469/1/2 474/1/2
f 474/1/2 469/1/2 475/1/2
f 471/1/2 466/1/2 476/1/2
f 476/1/2 466/1/2 477/1/2
f 472/1/2 473/1/2 478/1/2
f 478/1/2 473/1/2 479/1/2
f 480/1/2 481/1/2 482/1/2
f 482/1/2 481/1/2 483/1/2
f 484/1/2 485/1/2 486/1/2
f 486/1/2 485/1/2 487/1/2
f 488/1/2 489/1/2 491/1/2
f 491/1/2 489/1/2 492/1/2
f 490/1/2 491/1/2 494/1/2
f 494/1/2 491/1/2 495/1/2
f 492/1/2 493/1/2 496/1/2
f 496/1/2 493/1/2 497/1/2
f 498/1/2 499/1/2 500/1/2
f 500/1/2 499/1/2 501/1/2
f 502/1/2 503/1/2 505/1/2
f 505/1/2 503/1/2 506/1/2
f 504/1/2 505/1/2 509/1/2
f 509/1/2 505/1/2 510/1/2
f 506/1/2 507/1/2 511/1/2
f 511/1/2 507/1/2 512/1/2
f 508/1/2 509/1/2 513/1/2
f 513/1/2 509/1/2 514/1/2
f 515/1/2 516/1/2 517/1/2
f 517/1/2 516/1/2 518/1/2
f 519/1/2 520/1/2 521/1/2
f 521/1/2 520/1/2 522/1/2
f 523/1/2 524/1/2 525/1/2
f 525/1/2 524/1/2 526/1/2
f 527/1/2 528/1/2 529/1/2
f 529/1/2 528/1/2 530/1/2
f 531/1/2 532/1/2 533/1/2
f 533/1/2 532/1/2 534/1/2
f 535/1/2 536/1/2 538/1/2
f 538/1/2 536/1/2 539/1/2
f 537/1/2 538/1/2 540/1/2
f 540/1/2 538/1/2 541/1/2
f 542/1/2 543/1/2 544/1/2
f 544/1/2 543/1/2 545/1/2
f 546/1/2 547/1/2 548/1/2
f 548/1/2 547/1/2 549/1/2
f 550/1/2 551/1/2 552/1/2
f 552/1/2 551/1/2 553/1/2
f 554/1/2 555/1/2 556/1/2
f 556/1/2 555/1/2 557/1/2
f 558/1/2 559/1/2 560/1/2
f 560/1/2 559/1/2 561/1/2
f 561/1/2 562/1/2 563/1/2
f 563/1/2 562/1/2 564/1/2
f 565/1/2 566/1/2 567/1/2
f 567/1/2 566/1/2 568/1/2
f 569/1/2 570/1/2 571/1/2
f 571/1/2 570/1/2 572/1/2
f 573/1/2 574/1/2 576/1/2
f 576/1/2 574/1/2 577/1/2
f 575/1/2 576/1/2 578/1/2
f 578/1/2 576/1/2 579/1/2
f 580/1/2 581/1/2 582/1/2
f 582/1/2 581/1/2 583/1/2
f 583/1/2 584/1/2 587/1/2
f 587/1/2 584/1/2 588/1/2
f 585/1/2 586/1/2 591/1/2
f 591/1/2 586/1/2 592/1/2
f 588/1/2 589/1/2 593/1/2
f 593/1/2 589/1/2 594/1/2
f 590/1/2 591/1/2 595/1/2
f 595/1/2 591/1/2 596/1/2
f 597/1/2 598/1/2 599/1/2
f 599/1/2 598/1/2 600/1/2
f 601/1/2 602/1/2 604/1/2
f 604/1/2 602/1/2 605/1/2
f 603/1/2 604/1/2 606/1/2
f 603/1/2 606/1/2 608/1/2
f 606/1/2 607/1/2 608/1/2
f 608/1/2 607/1/2 609/1/2
f 609/1/2 610/1/2 611/1/2
f 611/1/2 610/1/2 612/1/2
f 612/1/2 613/1/2 614/1/2
f 614/1/2 613/1/2 615/1/2
f 616/1/2 617/1/2 618/1/2
f 618/1/2 617/1/2 619/1/2
f 616/1/2 618/1/2 621/1/2
f 621/1/2 618/1/2 622/1/2
f 619/1/2 617/1/2 623/1/2
f 623/1/2 617/1/2 624/1/2
f 620/1/2 621/1/2 625/1/2
f 625/1/2 621/1/2 626/1/2
f 627/1/2 628/1/2 629/1/2
f 629/1/2 628/1/2 630/1/2
f 630/1/2 631/1/2 632/1/2
f 632/1/2 631/1/2 633/1/2
f 634/1/2 635/1/2 637/1/2
f 637/1/2 635/1/2 638/1/2
f 636/1/2 637/1/2 640/1/2
f 638/1/2 639/1/2 640/1/2
f 637/1/2 638/1/2 640/1/2
f 640/1/2 639/1/2 641/1/2
f 636/1/2 640/1/2 642/1/2
f 641/1/2 639/1/2 643/1/2
f 636/1/2 642/1/2 644/1/2
f 642/1/2 643/1/2 644/1/2
f 644/1/2 643/1/2 645/1/2
f 643/1/2 639/1/2 646/1/2
f 645/1/2 643/1/2 646/1/2
f 646/1/2 639/1/2 647/1/2
f 645/1/2 646/1/2 648/1/2
f 648/1/2 646/1/2 649/1/2
f 650/1/2 651/1/2 652/1/2
f 652/1/2 651/1/2 653/1/2
f 657/1/3 655/1/3 654/1/3
f 658/1/3 655/1/3 657/1/3
f 661/1/3 657/1/3 656/1/3
f 661/1/3 659/1/3 658/1/3
f 661/1/3 658/1/3 657/1/3
f 663/1/3 661/1/3 660/1/3
f 664/1/3 659/1/3 661/1/3
f 664/1/3 661/1/3 663/1/3
f 665/1/3 659/1/3 664/1/3
f 666/1/3 663/1/3 662/1/3
f 666/1/3 664/1/3 663/1/3
f 667/1/3 664/1/3 666/1/3
f 668/1/3 664/1/3 667/1/3
f 670/1/3 669/1/3 668/1/3
f 670/1/3 668/1/3 667/1/3
f 671/1/3 669/1/3 670/1/3
f 672/1/3 669/1/3 671/1/3
f 673/1/3 669/1/3 672/1/3
f 674/1/3 669/1/3 673/1/3
f 675/1/3 669/1/3 674/1/3
f 676/1/3 674/1/3 673/1/3
f 677/1/3 674/1/3 676/1/3
f 681/1/3 679/1/3 678/1/3
f 682/1/3 679/1/3 681/1/3
f 683/1/3 679/1/3 682/1/3
f 685/1/3 681/1/3 680/1/3
f 685/1/3 682/1/3 681/1/3
f 686/1/3 682/1/3 685/1/3
f 687/1/3 684/1/3 683/1/3
f 688/1/3 684/1/3 687/1/3
f 693/1/3 685/1/3 680/1/3
f 694/1/3 685/1/3 693/1/3
f 696/1/3 693/1/3 692/1/3
f 697/1/3 689/1/3 688/1/3
f 698/1/3 689/1/3 697/1/3
f 700/1/3 696/1/3 695/1/3
f 701/1/3 693/1/3 696/1/3
f 701/1/3 696/1/3 700/1/3
f 702/1/3 693/1/3 701/1/3
f 705/1/3 700/1/3 699/1/3
f 705/1/3 701/1/3 700/1/3
f 706/1/3 701/1/3 705/1/3
f 707/1/3 701/1/3 706/1/3
f 709/1/3 704/1/3 703/1/3
f 710/1/3 704/1/3 709/1/3
f 713/1/3 708/1/3 707/1/3
f 713/1/3 707/1/3 706/1/3
f 714/1/3 708/1/3 713/1/3
f 715/1/3 691/1/3 690/1/3
f 716/1/3 691/1/3 715/1/3
f 717/1/3 708/1/3 714/1/3
f 718/1/3 708/1/3 717/1/3
f 720/1/3 719/1/3 718/1/3
f 723/1/3 712/1/3 711/1/3
f 724/1/3 712/1/3 723/1/3
f 725/1/3 721/1/3 720/1/3
f 725/1/3 720/1/3 718/1/3
f 726/1/3 721/1/3 725/1/3
f 727/1/3 721/1/3 726/1/3
f 728/1/3 723/1/3 722/1/3
f 729/1/3 723/1/3 728/1/3
f 730/1/3 727/1/3 726/1/3
f 730/1/3 728/1/3 727/1/3
f 731/1/3 728/1/3 730/1/3
f 735/1/3 733/1/3 732/1/3
f 736/1/3 733/1/3 735/1/3
f 738/1/3 735/1/3 734/1/3
f 739/1/3 735/1/3 738/1/3
f 741/1/3 738/1/3 737/1/3
f 743/1/3 741/1/3 740/1/3
f 744/1/3 738/1/3 741/1/3
f 744/1/3 741/1/3 743/1/3
f 745/1/3 738/1/3 744/1/3
f 747/1/3 743/1/3 742/1/3
f 747/1/3 744/1/3 743/1/3
f 748/1/3 744/1/3 747/1/3
f 749/1/3 744/1/3 748/1/3
f 751/1/3 747/1/3 746/1/3
f 751/1/3 748/1/3 747/1/3
f 752/1/3 748/1/3 751/1/3
f 753/1/3 748/1/3 752/1/3
f 756/1/3 752/1/3 751/1/3
f 756/1/3 751/1/3 750/1/3
f 757/1/3 752/1/3 756/1/3
f 758/1/3 752/1/3 757/1/3
f 760/1/3 755/1/3 754/1/3
f 761/1/3 755/1/3 760/1/3
f 762/1/3 759/1/3 758/1/3
f 762/1/3 758/1/3 757/1/3
f 763/1/3 759/1/3 762/1/3
f 764/1/3 759/1/3 763/1/3
f 766/1/3 765/1/3 764/1/3
f 766/1/3 764/1/3 763/1/3
f 767/1/3 765/1/3 766/1/3
f 768/1/3 765/1/3 767/1/3
f 770/1/3 769/1/3 768/1/3
f 770/1/3 768/1/3 767/1/3
f 771/1/3 769/1/3 770/1/3
f 772/1/3 769/1/3 771/1/3
f 773/1/3 769/1/3 772/1/3
f 775/1/3 774/1/3 773/1/3
f 776/1/3 774/1/3 775/1/3
f 778/1/3 777/1/3 776/1/3
f 779/1/3 777/1/3 778/1/3
f 783/1/3 781/1/3 780/1/3
f 784/1/3 781/1/3 783/1/3
f 785/1/3 781/1/3 784/1/3
f 788/1/3 783/1/3 782/1/3
f 789/1/3 783/1/3 788/1/3
f 790/1/3 783/1/3 789/1/3
f 791/1/3 785/1/3 784/1/3
f 791/1/3 786/1/3 785/1/3
f 792/1/3 786/1/3 791/1/3
f 795/1/3 789/1/3 788/1/3
f 795/1/3 788/1/3 787/1/3
f 796/1/3 789/1/3 795/1/3
f 797/1/3 789/1/3 796/1/3
f 798/1/3 793/1/3 792/1/3
f 799/1/3 793/1/3 798/1/3
f 802/1/3 795/1/3 794/1/3
f 802/1/3 796/1/3 795/1/3
f 803/1/3 796/1/3 802/1/3
f 804/1/3 796/1/3 803/1/3
f 805/1/3 800/1/3 799/1/3
f 806/1/3 800/1/3 805/1/3
f 807/1/3 802/1/3 801/1/3
f 807/1/3 803/1/3 802/1/3
f 808/1/3 803/1/3 807/1/3
f 812/1/3 807/1/3 801/1/3
f 813/1/3 807/1/3 812/1/3
f 814/1/3 810/1/3 809/1/3
f 815/1/3 810/1/3 814/1/3
f 817/1/3 812/1/3 811/1/3
f 819/1/3 817/1/3 816/1/3
f 820/1/3 812/1/3 817/1/3
f 820/1/3 817/1/3 819/1/3
f 821/1/3 812/1/3 820/1/3
f 822/1/3 819/1/3 818/1/3
f 822/1/3 820/1/3 819/1/3
f 823/1/3 820/1/3 822/1/3
f 824/1/3 820/1/3 823/1/3
f 826/1/3 825/1/3 824/1/3
f 826/1/3 824/1/3 823/1/3
f 827/1/3 825/1/3 826/1/3
f 828/1/3 825/1/3 827/1/3
f 829/1/3 825/1/3 828/1/3
f 833/1/3 830/1/3 829/1/3
f 835/1/3 832/1/3 831/1/3
f 836/1/3 832/1/3 835/1/3
f 837/1/3 834/1/3 833/1/3
f 837/1/3 833/1/3 829/1/3
f 838/1/3 834/1/3 837/1/3
f 839/1/3 834/1/3 838/1/3
f 843/1/3 839/1/3 838/1/3
f 843/1/3 840/1/3 839/1/3
f 844/1/3 840/1/3 843/1/3
f 845/1/3 840/1/3 844/1/3
f 848/1/3 842/1/3 841/1/3
f 849/1/3 842/1/3 848/1/3
f 850/1/3 846/1/3 845/1/3
f 850/1/3 845/1/3 844/1/3
f 851/1/3 846/1/3 850/1/3
f 852/1/3 846/1/3 851/1/3
f 855/1/3 848/1/3 847/1/3
f 856/1/3 848/1/3 855/1/3
f 857/1/3 853/1/3 852/1/3
f 857/1/3 852/1/3 851/1/3
f 858/1/3 853/1/3 857/1/3
f 859/1/3 855/1/3 854/1/3
f 860/1/3 855/1/3 859/1/3
f 861/1/3 855/1/3 860/1/3
f 862/1/3 859/1/3 858/1/3
f 862/1/3 860/1/3 859/1/3
f 863/1/3 860/1/3 862/1/3
f 868/1/3 865/1/3 864/1/3
f 869/1/3 865/1/3 868/1/3
f 872/1/3 867/1/3 866/1/3
f 873/1/3 867/1/3 872/1/3
f 874/1/3 871/1/3 870/1/3
f 875/1/3 871/1/3 874/1/3
f 877/1/3 876/1/3 875/1/3
f 878/1/3 876/1/3 877/1/3
f 880/1/3 879/1/3 878/1/3
f 881/1/3 879/1/3 880/1/3
f 886/1/3 883/1/3 882/1/3
f 887/1/3 883/1/3 886/1/3
f 889/1/3 885/1/3 884/1/3
f 890/1/3 885/1/3 889/1/3
f 892/1/3 889/1/3 888/1/3
f 893/1/3 889/1/3 892/1/3
f 895/1/3 892/1/3 891/1/3
f 896/1/3 892/1/3 895/1/3
f 897/1/3 895/1/3 894/1/3
f 898/1/3 895/1/3 897/1/3
f 900/1/3 899/1/3 898/1/3
f 901/1/3 899/1/3 900/1/3
f 903/1/3 902/1/3 901/1/3
f 904/1/3 902/1/3 903/1/3
f 906/1/3 905/1/3 904/1/3
f 907/1/3 905/1/3 906/1/3
f 910/1/3 909/1/3 908/1/3
f 911/1/3 909/1/3 910/1/3
f 915/1/3 913/1/3 912/1/3
f 916/1/3 913/1/3 915/1/3
f 920/1/3 915/1/3 914/1/3
f 921/1/3 915/1/3 920/1/3
f 922/1/3 918/1/3 917/1/3
f 923/1/3 918/1/3 922/1/3
f 926/1/3 920/1/3 919/1/3
f 927/1/3 920/1/3 926/1/3
f 928/1/3 925/1/3 924/1/3
f 929/1/3 925/1/3 928/1/3
f 932/1/3 931/1/3 930/1/3
f 933/1/3 931/1/3 932/1/3
f 937/1/3 935/1/3 934/1/3
f 938/1/3 935/1/3 937/1/3
f 941/1/3 940/1/3 939/1/3
f 942/1/3 940/1/3 941/1/3
f 943/1/3 937/1/3 936/1/3
f 944/1/3 937/1/3 943/1/3
f 946/1/3 945/1/3 944/1/3
f 947/1/3 945/1/3 946/1/3
f 951/1/3 949/1/3 948/1/3
f 952/1/3 949/1/3 951/1/3
f 953/1/3 949/1/3 952/1/3
f 955/1/3 951/1/3 950/1/3
f 955/1/3 952/1/3 951/1/3
f 956/1/3 952/1/3 955/1/3
f 957/1/3 952/1/3 956/1/3
f 959/1/3 955/1/3 954/1/3
f 959/1/3 956/1/3 955/1/3
f 960/1/3 956/1/3 959/1/3
f 961/1/3 956/1/3 960/1/3
f 965/1/3 960/1/3 959/1/3
f 965/1/3 959/1/3 958/1/3
f 966/1/3 960/1/3 965/1/3
f 967/1/3 960/1/3 966/1/3
f 968/1/3 965/1/3 964/1/3
f 968/1/3 966/1/3 965/1/3
f 969/1/3 966/1/3 968/1/3
f 970/1/3 963/1/3 962/1/3
f 971/1/3 963/1/3 970/1/3
f 974/1/3 973/1/3 972/1/3
f 975/1/3 973/1/3 974/1/3
f 978/1/3 977/1/3 976/1/3
f 979/1/3 977/1/3 978/1/3
f 982/1/3 981/1/3 980/1/3
f 983/1/3 981/1/3 982/1/3
f 984/1/4 985/1/4 987/1/4
f 987/1/4 985/1/4 988/1/4
f 986/1/4 987/1/4 991/1/4
f 988/1/4 989/1/4 991/1/4
f 987/1/4 988/1/4 991/1/4
f 991/1/4 989/1/4 992/1/4
f 990/1/4 991/1/4 992/1/4
f 992/1/4 989/1/4 993/1/4
f 990/1/4 992/1/4 994/1/4
f 994/1/4 992/1/4 995/1/4
f 990/1/4 994/1/4 996/1/4
f 990/1/4 996/1/4 998/1/4
f 996/1/4 997/1/4 998/1/4
f 998/1/4 997/1/4 999/1/4
f 999/1/4 997/1/4 1000/1/4
f 999/1/4 1000/1/4 1002/1/4
f 1000/1/4 1001/1/4 1002/1/4
f 1002/1/4 1001/1/4 1003/1/4
f 1003/1/4 1001/1/4 1004/1/4
f 1004/1/4 1001/1/4 1005/1/4
f 1003/1/4 1004/1/4 1006/1/4
f 1006/1/4 1004/1/4 1007/1/4
f 1007/1/4 1004/1/4 1008/1/4
f 1008/1/4 1004/1/4 1009/1/4
f 1010/1/4 1011/1/4 1013/1/4
f 1013/1/4 1011/1/4 1014/1/4
f 1014/1/4 1011/1/4 1015/1/4
f 1012/1/4 1013/1/4 1017/1/4
f 1013/1/4 1014/1/4 1017/1/4
f 1017/1/4 1014/1/4 1018/1/4
f 1016/1/4 1017/1/4 1022/1/4
f 1019/1/4 1020/1/4 1023/1/4
f 1023/1/4 1020/1/4 1024/1/4
f 1021/1/4 1022/1/4 1027/1/4
f 1022/1/4 1017/1/4 1028/1/4
f 1027/1/4 1022/1/4 1028/1/4
f 1028/1/4 1017/1/4 1029/1/4
f 1025/1/4 1026/1/4 1031/1/4
f 1031/1/4 1026/1/4 1032/1/4
f 1029/1/4 1030/1/4 1033/1/4
f 1028/1/4 1029/1/4 1033/1/4
f 1033/1/4 1030/1/4 1034/1/4
f 1034/1/4 1030/1/4 1035/1/4
f 1034/1/4 1035/1/4 1039/1/4
f 1035/1/4 1036/1/4 1039/1/4
f 1039/1/4 1036/1/4 1040/1/4
f 1040/1/4 1036/1/4 1041/1/4
f 1037/1/4 1038/1/4 1043/1/4
f 1043/1/4 1038/1/4 1044/1/4
f 1041/1/4 1042/1/4 1045/1/4
f 1040/1/4 1041/1/4 1045/1/4
f 1045/1/4 1042/1/4 1046/1/4
f 1046/1/4 1042/1/4 1047/1/4
f 1047/1/4 1048/1/4 1049/1/4
f 1046/1/4 1047/1/4 1049/1/4
f 1049/1/4 1048/1/4 1050/1/4
f 1051/1/4 1052/1/4 1054/1/4
f 1054/1/4 1052/1/4 1055/1/4
f 1053/1/4 1054/1/4 1057/1/4
f 1057/1/4 1054/1/4 1058/1/4
f 1058/1/4 1054/1/4 1059/1/4
f 1056/1/4 1057/1/4 1060/1/4
f 1057/1/4 1058/1/4 1060/1/4
f 1060/1/4 1058/1/4 1061/1/4
f 1056/1/4 1060/1/4 1063/1/4
f 1062/1/4 1063/1/4 1066/1/4
f 1063/1/4 1060/1/4 1066/1/4
f 1066/1/4 1060/1/4 1067/1/4
f 1064/1/4 1065/1/4 1068/1/4
f 1068/1/4 1065/1/4 1069/1/4
f 1062/1/4 1066/1/4 1070/1/4
f 1070/1/4 1066/1/4 1071/1/4
f 1071/1/4 1072/1/4 1073/1/4
f 1073/1/4 1072/1/4 1074/1/4
f 1074/1/4 1075/1/4 1076/1/4
f 1074/1/4 1076/1/4 1080/1/4
f 1076/1/4 1077/1/4 1080/1/4
f 1080/1/4 1077/1/4 1081/1/4
f 1081/1/4 1077/1/4 1082/1/4
f 1078/1/4 1079/1/4 1085/1/4
f 1085/1/4 1079/1/4 1086/1/4
f 1082/1/4 1083/1/4 1087/1/4
f 1081/1/4 1082/1/4 1087/1/4
f 1087/1/4 1083/1/4 1088/1/4
f 1088/1/4 1083/1/4 1089/1/4
f 1084/1/4 1085/1/4 1090/1/4
f 1090/1/4 1085/1/4 1091/1/4
f 1088/1/4 1089/1/4 1092/1/4
f 1089/1/4 1090/1/4 1092/1/4
f 1092/1/4 1090/1/4 1093/1/4
f 1096/1/4 1097/1/4 1098/1/4
f 1098/1/4 1097/1/4 1099/1/4
f 1094/1/4 1095/1/4 1100/1/4
f 1100/1/4 1095/1/4 1101/1/4
f 1102/1/4 1103/1/4 1104/1/4
f 1104/1/4 1103/1/4 1105/1/4
f 1106/1/4 1107/1/4 1108/1/4
f 1108/1/4 1107/1/4 1109/1/4
f 1109/1/4 1107/1/4 1110/1/4
f 1110/1/4 1107/1/4 1111/1/4
f 1112/1/4 1113/1/4 1114/1/4
f 1114/1/4 1113/1/4 1115/1/4
f 1116/1/4 1117/1/4 1120/1/4
f 1120/1/4 1117/1/4 1121/1/4
f 1118/1/4 1119/1/4 1122/1/4
f 1122/1/4 1119/1/4 1123/1/4
f 1124/1/4 1125/1/4 1126/1/4
f 1126/1/4 1125/1/4 1127/1/4
f 1128/1/4 1129/1/4 1130/1/4
f 1130/1/4 1129/1/4 1131/1/4
f 1132/1/4 1133/1/4 1136/1/4
f 1136/1/4 1133/1/4 1137/1/4
f 1134/1/4 1135/1/4 1140/1/4
f 1140/1/4 1135/1/4 1141/1/4
f 1138/1/4 1139/1/4 1142/1/4
f 1142/1/4 1139/1/4 1143/1/4
f 1143/1/4 1144/1/4 1145/1/4
f 1142/1/4 1143/1/4 1145/1/4
f 1142/1/4 1145/1/4 1147/1/4
f 1145/1/4 1146/1/4 1147/1/4
f 1147/1/4 1146/1/4 1148/1/4
f 1148/1/4 1146/1/4 1149/1/4
f 1149/1/4 1146/1/4 1150/1/4
f 1148/1/4 1149/1/4 1151/1/4
f 1151/1/4 1149/1/4 1152/1/4
f 1153/1/4 1154/1/4 1156/1/4
f 1156/1/4 1154/1/4 1157/1/4
f 1155/1/4 1156/1/4 1159/1/4
f 1159/1/4 1156/1/4 1160/1/4
f 1158/1/4 1159/1/4 1162/1/4
f 1162/1/4 1159/1/4 1163/1/4
f 1161/1/4 1162/1/4 1166/1/4
f 1166/1/4 1162/1/4 1167/1/4
f 1164/1/4 1165/1/4 1169/1/4
f 1169/1/4 1165/1/4 1170/1/4
f 1167/1/4 1168/1/4 1171/1/4
f 1171/1/4 1168/1/4 1172/1/4
f 1172/1/4 1173/1/4 1174/1/4
f 1174/1/4 1173/1/4 1175/1/4
f 1175/1/4 1176/1/4 1177/1/4
f 1177/1/4 1176/1/4 1178/1/4
f 1179/1/4 1180/1/4 1182/1/4
f 1182/1/4 1180/1/4 1183/1/4
f 1181/1/4 1182/1/4 1186/1/4
f 1186/1/4 1182/1/4 1187/1/4
f 1187/1/4 1182/1/4 1188/1/4
f 1184/1/4 1185/1/4 1189/1/4
f 1189/1/4 1185/1/4 1190/1/4
f 1186/1/4 1187/1/4 1193/1/4
f 1193/1/4 1187/1/4 1194/1/4
f 1191/1/4 1192/1/4 1195/1/4
f 1195/1/4 1192/1/4 1196/1/4
f 1197/1/4 1198/1/4 1200/1/4
f 1200/1/4 1198/1/4 1201/1/4
f 1201/1/4 1198/1/4 1202/1/4
f 1199/1/4 1200/1/4 1204/1/4
f 1204/1/4 1200/1/4 1205/1/4
f 1205/1/4 1200/1/4 1206/1/4
f 1203/1/4 1204/1/4 1208/1/4
f 1204/1/4 1205/1/4 1208/1/4
f 1208/1/4 1205/1/4 1209/1/4
f 1209/1/4 1205/1/4 1210/1/4
f 1208/1/4 1209/1/4 1214/1/4
f 1207/1/4 1208/1/4 1214/1/4
f 1214/1/4 1209/1/4 1215/1/4
f 1215/1/4 1209/1/4 1216/1/4
f 1211/1/4 1212/1/4 1217/1/4
f 1213/1/4 1214/1/4 1218/1/4
f 1214/1/4 1215/1/4 1218/1/4
f 1218/1/4 1215/1/4 1219/1/4
f 1213/1/4 1218/1/4 1221/1/4
f 1221/1/4 1218/1/4 1222/1/4
f 1220/1/4 1221/1/4 1224/1/4
f 1221/1/4 1222/1/4 1224/1/4
f 1224/1/4 1222/1/4 1225/1/4
f 1225/1/4 1222/1/4 1226/1/4
f 1217/1/4 1212/1/4 1227/1/4
f 1227/1/4 1212/1/4 1228/1/4
f 1224/1/4 1225/1/4 1230/1/4
f 1223/1/4 1224/1/4 1230/1/4
f 1230/1/4 1225/1/4 1231/1/4
f 1231/1/4 1225/1/4 1232/1/4
f 1229/1/4 1230/1/4 1235/1/4
f 1230/1/4 1231/1/4 1235/1/4
f 1235/1/4 1231/1/4 1236/1/4
f 1236/1/4 1231/1/4 1237/1/4
f 1233/1/4 1234/1/4 1239/1/4
f 1239/1/4 1234/1/4 1240/1/4
f 1237/1/4 1238/1/4 1241/1/4
f 1236/1/4 1237/1/4 1241/1/4
f 1241/1/4 1238/1/4 1242/1/4
f 1242/1/4 1238/1/4 1243/1/4
f 1243/1/4 1244/1/4 1247/1/4
f 1242/1/4 1243/1/4 1247/1/4
f 1247/1/4 1244/1/4 1248/1/4
f 1248/1/4 1244/1/4 1249/1/4
f 1249/1/4 1250/1/4 1251/1/4
f 1248/1/4 1249/1/4 1251/1/4
f 1248/1/4 1251/1/4 1253/1/4
f 1251/1/4 1252/1/4 1253/1/4
f 1253/1/4 1252/1/4 1254/1/4
f 1254/1/4 1252/1/4 1255/1/4
f 1255/1/4 1252/1/4 1256/1/4
f 1256/1/4 1252/1/4 1257/1/4
f 1245/1/4 1246/1/4 1259/1/4
f 1259/1/4 1246/1/4 1260/1/4
f 1257/1/4 1258/1/4 1261/1/4
f 1256/1/4 1257/1/4 1261/1/4
f 1261/1/4 1258/1/4 1262/1/4
f 1262/1/4 1258/1/4 1263/1/4
f 1263/1/4 1264/1/4 1265/1/4
f 1262/1/4 1263/1/4 1265/1/4
f 1265/1/4 1264/1/4 1266/1/4
f 1266/1/4 1267/1/4 1268/1/4
f 1268/1/4 1267/1/4 1269/1/4
f 1270/1/4 1271/1/4 1273/1/4
f 1273/1/4 1271/1/4 1274/1/4
f 1274/1/4 1271/1/4 1275/1/4
f 1272/1/4 1273/1/4 1277/1/4
f 1273/1/4 1274/1/4 1277/1/4
f 1277/1/4 1274/1/4 1278/1/4
f 1278/1/4 1274/1/4 1279/1/4
f 1276/1/4 1277/1/4 1281/1/4
f 1277/1/4 1278/1/4 1281/1/4
f 1281/1/4 1278/1/4 1282/1/4
f 1282/1/4 1278/1/4 1283/1/4
f 1281/1/4 1282/1/4 1287/1/4
f 1280/1/4 1281/1/4 1287/1/4
f 1287/1/4 1282/1/4 1288/1/4
f 1288/1/4 1282/1/4 1289/1/4
f 1286/1/4 1287/1/4 1290/1/4
f 1287/1/4 1288/1/4 1290/1/4
f 1290/1/4 1288/1/4 1291/1/4
f 1284/1/4 1285/1/4 1294/1/4
f 1294/1/4 1285/1/4 1295/1/4
f 1292/1/4 1293/1/4 1296/1/4
f 1296/1/4 1293/1/4 1297/1/4
f 1298/1/4 1299/1/4 1300/1/4
f 1300/1/4 1299/1/4 1301/1/4
f 1304/1/4 1305/1/4 1306/1/4
f 1306/1/4 1305/1/4 1307/1/4
f 1302/1/4 1303/1/4 1308/1/4
f 1308/1/4 1303/1/4 1309/1/4
f 1312/1/5 1311/1/5 1310/1/5
f 1313/1/5 1311/1/5 1312/1/5
f 1317/1/5 1315/1/5 1314/1/5
f 1318/1/5 1315/1/5 1317/1/5
f 1320/1/5 1317/1/5 1316/1/5
f 1321/1/5 1317/1/5 1320/1/5
f 1322/1/5 1319/1/5 1318/1/5
f 1323/1/5 1319/1/5 1322/1/5
f 1324/1/5 1322/1/5 1321/1/5
f 1325/1/5 1322/1/5 1324/1/5
f 1331/1/5 1327/1/5 1326/1/5
f 1332/1/5 1327/1/5 1331/1/5
f 1333/1/5 1329/1/5 1328/1/5
f 1334/1/5 1329/1/5 1333/1/5
f 1336/1/5 1331/1/5 1330/1/5
f 1337/1/5 1331/1/5 1336/1/5
f 1340/1/5 1335/1/5 1334/1/5
f 1341/1/5 1335/1/5 1340/1/5
f 1342/1/5 1338/1/5 1337/1/5
f 1343/1/5 1338/1/5 1342/1/5
f 1344/1/5 1340/1/5 1339/1/5
f 1345/1/5 1340/1/5 1344/1/5
f 1350/1/5 1347/1/5 1346/1/5
f 1351/1/5 1347/1/5 1350/1/5
f 1355/1/5 1349/1/5 1348/1/5
f 1356/1/5 1349/1/5 1355/1/5
f 1357/1/5 1353/1/5 1352/1/5
f 1358/1/5 1353/1/5 1357/1/5
f 1360/1/5 1355/1/5 1354/1/5
f 1361/1/5 1355/1/5 1360/1/5
f 1364/1/5 1359/1/5 1358/1/5
f 1365/1/5 1359/1/5 1364/1/5
f 1366/1/5 1362/1/5 1361/1/5
f 1367/1/5 1362/1/5 1366/1/5
f 1370/1/5 1364/1/5 1363/1/5
f 1371/1/5 1364/1/5 1370/1/5
f 1372/1/5 1369/1/5 1368/1/5
f 1373/1/5 1369/1/5 1372/1/5
f 1379/1/5 1375/1/5 1374/1/5
f 1380/1/5 1375/1/5 1379/1/5
f 1381/1/5 1377/1/5 1376/1/5
f 1382/1/5 1377/1/5 1381/1/5
f 1384/1/5 1379/1/5 1378/1/5
f 1385/1/5 1379/1/5 1384/1/5
f 1386/1/5 1383/1/5 1382/1/5
f 1387/1/5 1383/1/5 1386/1/5
f 1388/1/5 1384/1/5 1378/1/5
f 1391/1/5 1383/1/5 1387/1/5
f 1392/1/5 1389/1/5 1388/1/5
f 1392/1/5 1388/1/5 1378/1/5
f 1393/1/5 1389/1/5 1392/1/5
f 1394/1/5 1391/1/5 1390/1/5
f 1395/1/5 1383/1/5 1391/1/5
f 1395/1/5 1391/1/5 1394/1/5
f 1400/1/5 1397/1/5 1396/1/5
f 1401/1/5 1397/1/5 1400/1/5
f 1406/1/5 1399/1/5 1398/1/5
f 1407/1/5 1399/1/5 1406/1/5
f 1408/1/5 1403/1/5 1402/1/5
f 1409/1/5 1403/1/5 1408/1/5
f 1412/1/5 1405/1/5 1404/1/5
f 1413/1/5 1405/1/5 1412/1/5
f 1416/1/5 1411/1/5 1410/1/5
f 1417/1/5 1411/1/5 1416/1/5
f 1418/1/5 1415/1/5 1414/1/5
f 1419/1/5 1415/1/5 1418/1/5
f 1422/1/5 1421/1/5 1420/1/5
f 1423/1/5 1421/1/5 1422/1/5
f 1430/1/5 1425/1/5 1424/1/5
f 1431/1/5 1425/1/5 1430/1/5
f 1432/1/5 1427/1/5 1426/1/5
f 1433/1/5 1427/1/5 1432/1/5
f 1438/1/5 1429/1/5 1428/1/5
f 1439/1/5 1429/1/5 1438/1/5
f 1440/1/5 1435/1/5 1434/1/5
f 1441/1/5 1435/1/5 1440/1/5
f 1444/1/5 1437/1/5 1436/1/5
f 1445/1/5 1437/1/5 1444/1/5
f 1448/1/5 1443/1/5 1442/1/5
f 1449/1/5 1443/1/5 1448/1/5
f 1450/1/5 1447/1/5 1446/1/5
f 1451/1/5 1447/1/5 1450/1/5
f 1456/1/5 1453/1/5 1452/1/5
f 1457/1/5 1453/1/5 1456/1/5
f 1462/1/5 1455/1/5 1454/1/5
f 1463/1/5 1455/1/5 1462/1/5
f 1464/1/5 1459/1/5 1458/1/5
f 1465/1/5 1459/1/5 1464/1/5
f 1470/1/5 1461/1/5 1460/1/5
f 1471/1/5 1461/1/5 1470/1/5
f 1472/1/5 1467/1/5 1466/1/5
f 1473/1/5 1467/1/5 1472/1/5
f 1476/1/5 1469/1/5 1468/1/5
f 1477/1/5 1469/1/5 1476/1/5
f 1480/1/5 1475/1/5 1474/1/5
f 1481/1/5 1475/1/5 1480/1/5
f 1482/1/5 1479/1/5 1478/1/5
f 1483/1/5 1479/1/5 1482/1/5
f 1489/1/5 1485/1/5 1484/1/5
f 1490/1/5 1485/1/5 1489/1/5
f 1491/1/5 1487/1/5 1486/1/5
f 1492/1/5 1487/1/5 1491/1/5
f 1495/1/5 1489/1/5 1488/1/5
f 1496/1/5 1489/1/5 1495/1/5
f 1497/1/5 1493/1/5 1492/1/5
f 1498/1/5 1493/1/5 1497/1/5
f 1500/1/5 1495/1/5 1494/1/5
f 1501/1/5 1495/1/5 1500/1/5
f 1502/1/5 1499/1/5 1498/1/5
f 1503/1/5 1499/1/5 1502/1/5
f 1508/1/5 1505/1/5 1504/1/5
f 1509/1/5 1505/1/5 1508/1/5
f 1510/1/5 1507/1/5 1506/1/5
f 1511/1/5 1507/1/5 1510/1/5
f 1514/1/5 1513/1/5 1512/1/5
f 1515/1/5 1513/1/5 1514/1/5
f 1521/1/5 1517/1/5 1516/1/5
f 1522/1/5 1517/1/5 1521/1/5
f 1523/1/5 1519/1/5 1518/1/5
f 1524/1/5 1519/1/5 1523/1/5
f 1527/1/5 1521/1/5 1520/1/5
f 1528/1/5 1521/1/5 1527/1/5
f 1529/1/5 1525/1/5 1524/1/5
f 1530/1/5 1525/1/5 1529/1/5
f 1532/1/5 1527/1/5 1526/1/5
f 1533/1/5 1527/1/5 1532/1/5
f 1534/1/5 1531/1/5 1530/1/5
f 1535/1/5 1531/1/5 1534/1/5
f 1540/1/5 1537/1/5 1536/1/5
f 1541/1/5 1537/1/5 1540/1/5
f 1543/1/5 1539/1/5 1538/1/5
f 1544/1/5 1539/1/5 1543/1/5
f 1545/1/5 1542/1/5 1541/1/5
f 1546/1/5 1542/1/5 1545/1/5
f 1551/1/5 1548/1/5 1547/1/5
f 1552/1/5 1548/1/5 1551/1/5
f 1553/1/5 1550/1/5 1549/1/5
f 1554/1/5 1550/1/5 1553/1/5
f 1559/1/5 1556/1/5 1555/1/5
f 1560/1/5 1556/1/5 1559/1/5
f 1561/1/5 1558/1/5 1557/1/5
f 1562/1/5 1558/1/5 1561/1/5
f 1567/1/5 1564/1/5 1563/1/5
f 1568/1/5 1564/1/5 1567/1/5
f 1571/1/5 1566/1/5 1565/1/5
f 1572/1/5 1566/1/5 1571/1/5
f 1573/1/5 1570/1/5 1569/1/5
f 1574/1/5 1570/1/5 1573/1/5
f 1579/1/5 1576/1/5 1575/1/5
f 1580/1/5 1576/1/5 1579/1/5
f 1582/1/5 1578/1/5 1577/1/5
f 1583/1/5 1578/1/5 1582/1/5
f 1584/1/5 1581/1/5 1580/1/5
f 1585/1/5 1581/1/5 1584/1/5
f 1588/1/5 1587/1/5 1586/1/5
f 1589/1/5 1587/1/5 1588/1/5
f 1594/1/5 1591/1/5 1590/1/5
f 1595/1/5 1591/1/5 1594/1/5
f 1596/1/5 1593/1/5 1592/1/5
f 1597/1/5 1593/1/5 1596/1/5
f 1606/1/5 1601/1/5 1600/1/5
f 1607/1/5 1603/1/5 1602/1/5
f 1608/1/5 1603/1/5 1607/1/5
f 1609/1/5 1603/1/5 1608/1/5
f 1610/1/5 1605/1/5 1604/1/5
f 1611/1/5 1605/1/5 1610/1/5
f 1612/1/5 1606/1/5 1600/1/5
f 1612/1/5 1607/1/5 1606/1/5
f 1612/1/5 1608/1/5 1607/1/5
f 1613/1/5 1608/1/5 1612/1/5
f 1614/1/5 1605/1/5 1611/1/5
f 1615/1/5 1605/1/5 1614/1/5
f 1617/1/5 1616/1/5 1615/1/5
f 1618/1/5 1616/1/5 1617/1/5
f 1619/1/5 1599/1/5 1598/1/5
f 1620/1/5 1599/1/5 1619/1/5
f 1621/1/5 1612/1/5 1600/1/5
f 1622/1/5 1608/1/5 1613/1/5
f 1624/1/5 1621/1/5 1600/1/5
f 1624/1/5 1622/1/5 1621/1/5
f 1625/1/5 1622/1/5 1624/1/5
f 1626/1/5 1608/1/5 1622/1/5
f 1626/1/5 1622/1/5 1625/1/5
f 1627/1/5 1608/1/5 1626/1/5
f 1629/1/5 1625/1/5 1624/1/5
f 1629/1/5 1624/1/5 1623/1/5
f 1630/1/5 1625/1/5 1629/1/5
f 1631/1/5 1628/1/5 1627/1/5
f 1631/1/5 1627/1/5 1626/1/5
f 1632/1/5 1628/1/5 1631/1/5
f 1638/1/5 1636/1/5 1635/1/5
f 1639/1/5 1636/1/5 1638/1/5
f 1643/1/5 1638/1/5 1637/1/5
f 1643/1/5 1639/1/5 1638/1/5
f 1643/1/5 1640/1/5 1639/1/5
f 1645/1/5 1644/1/5 1643/1/5
f 1648/1/5 1634/1/5 1633/1/5
f 1649/1/5 1642/1/5 1641/1/5
f 1650/1/5 1642/1/5 1649/1/5
f 1651/1/5 1646/1/5 1645/1/5
f 1651/1/5 1645/1/5 1643/1/5
f 1652/1/5 1646/1/5 1651/1/5
f 1653/1/5 1648/1/5 1647/1/5
f 1654/1/5 1634/1/5 1648/1/5
f 1654/1/5 1648/1/5 1653/1/5
f 1655/1/5 1634/1/5 1654/1/5
f 1656/1/5 1651/1/5 1643/1/5
f 1656/1/5 1643/1/5 1637/1/5
f 1657/1/5 1651/1/5 1656/1/5
f 1658/1/6 1659/1/6 1660/1/6
f 1660/1/6 1659/1/6 1661/1/6
f 1658/1/6 1660/1/6 1662/1/6
f 1661/1/6 1659/1/6 1663/1/6
f 1658/1/6 1662/1/6 1664/1/6
f 1662/1/6 1663/1/6 1664/1/6
f 1663/1/6 1659/1/6 1665/1/6
f 1664/1/6 1663/1/6 1665/1/6
f 1666/1/6 1667/1/6 1668/1/6
f 1668/1/6 1667/1/6 1669/1/6
f 1672/1/6 1673/1/6 1674/1/6
f 1674/1/6 1673/1/6 1675/1/6
f 1670/1/6 1671/1/6 1676/1/6
f 1676/1/6 1671/1/6 1677/1/6
f 1675/1/6 1676/1/6 1678/1/6
f 1678/1/6 1676/1/6 1679/1/6
f 1679/1/6 1676/1/6 1680/1/6
f 1680/1/6 1676/1/6 1681/1/6
f 1682/1/6 1683/1/6 1685/1/6
f 1685/1/6 1683/1/6 1686/1/6
f 1686/1/6 1683/1/6 1687/1/6
f 1684/1/6 1685/1/6 1688/1/6
f 1685/1/6 1686/1/6 1688/1/6
f 1688/1/6 1686/1/6 1689/1/6
f 1684/1/6 1688/1/6 1690/1/6
f 1690/1/6 1691/1/6 1694/1/6
f 1684/1/6 1690/1/6 1694/1/6
f 1694/1/6 1691/1/6 1695/1/6
f 1695/1/6 1691/1/6 1696/1/6
f 1692/1/6 1693/1/6 1697/1/6
f 1697/1/6 1693/1/6 1698/1/6
f 1699/1/6 1700/1/6 1703/1/6
f 1703/1/6 1700/1/6 1704/1/6
f 1701/1/6 1702/1/6 1706/1/6
f 1706/1/6 1702/1/6 1707/1/6
f 1701/1/6 1706/1/6 1708/1/6
f 1708/1/6 1706/1/6 1709/1/6
f 1704/1/6 1705/1/6 1712/1/6
f 1712/1/6 1705/1/6 1713/1/6
f 1710/1/6 1711/1/6 1714/1/6
f 1714/1/6 1711/1/6 1715/1/6
f 1716/1/6 1717/1/6 1722/1/6
f 1722/1/6 1717/1/6 1723/1/6
f 1718/1/6 1719/1/6 1724/1/6
f 1724/1/6 1719/1/6 1725/1/6
f 1720/1/6 1721/1/6 1727/1/6
f 1727/1/6 1721/1/6 1728/1/6
f 1725/1/6 1726/1/6 1731/1/6
f 1731/1/6 1726/1/6 1732/1/6
f 1729/1/6 1730/1/6 1733/1/6
f 1733/1/6 1730/1/6 1734/1/6
f 1735/1/6 1736/1/6 1737/1/6
f 1737/1/6 1736/1/6 1738/1/6
f 1739/1/6 1740/1/6 1742/1/6
f 1742/1/6 1740/1/6 1743/1/6
f 1741/1/6 1742/1/6 1746/1/6
f 1746/1/6 1742/1/6 1747/1/6
f 1744/1/6 1745/1/6 1748/1/6
f 1748/1/6 1745/1/6 1749/1/6
f 1752/1/6 1753/1/6 1754/1/6
f 1754/1/6 1753/1/6 1755/1/6
f 1750/1/6 1751/1/6 1758/1/6
f 1758/1/6 1751/1/6 1759/1/6
f 1756/1/6 1757/1/6 1760/1/6
f 1760/1/6 1757/1/6 1761/1/6
f 1762/1/6 1763/1/6 1766/1/6
f 1766/1/6 1763/1/6 1767/1/6
f 1764/1/6 1765/1/6 1771/1/6
f 1771/1/6 1765/1/6 1772/1/6
f 1768/1/6 1769/1/6 1773/1/6
f 1773/1/6 1769/1/6 1774/1/6
f 1770/1/6 1771/1/6 1777/1/6
f 1777/1/6 1771/1/6 1778/1/6
f 1770/1/6 1777/1/6 1779/1/6
f 1779/1/6 1777/1/6 1780/1/6
f 1775/1/6 1776/1/6 1783/1/6
f 1783/1/6 1776/1/6 1784/1/6
f 1781/1/6 1782/1/6 1785/1/6
f 1785/1/6 1782/1/6 1786/1/6
f 1787/1/6 1788/1/6 1791/1/6
f 1791/1/6 1788/1/6 1792/1/6
f 1789/1/6 1790/1/6 1793/1/6
f 1793/1/6 1790/1/6 1794/1/6
f 1795/1/6 1796/1/6 1797/1/6
f 1797/1/6 1796/1/6 1798/1/6
f 1799/1/6 1800/1/6 1801/1/6
f 1801/1/6 1800/1/6 1802/1/6
f 1803/1/6 1804/1/6 1807/1/6
f 1807/1/6 1804/1/6 1808/1/6
f 1805/1/6 1806/1/6 1809/1/6
f 1809/1/6 1806/1/6 1810/1/6
f 1811/1/6 1812/1/6 1815/1/6
f 1815/1/6 1812/1/6 1816/1/6
f 1813/1/6 1814/1/6 1817/1/6
f 1817/1/6 1814/1/6 1818/1/6
f 1819/1/6 1820/1/6 1823/1/6
f 1823/1/6 1820/1/6 1824/1/6
f 1821/1/6 1822/1/6 1827/1/6
f 1827/1/6 1822/1/6 1828/1/6
f 1825/1/6 1826/1/6 1829/1/6
f 1829/1/6 1826/1/6 1830/1/6
f 1830/1/6 1826/1/6 1831/1/6
f 1832/1/6 1833/1/6 1836/1/6
f 1836/1/6 1833/1/6 1837/1/6
f 1834/1/6 1835/1/6 1838/1/6
f 1838/1/6 1835/1/6 1839/1/6
f 1840/1/6 1841/1/6 1844/1/6
f 1844/1/6 1841/1/6 1845/1/6
f 1842/1/6 1843/1/6 1846/1/6
f 1846/1/6 1843/1/6 1847/1/6
f 1848/1/6 1849/1/6 1855/1/6
f 1855/1/6 1849/1/6 1856/1/6
f 1850/1/6 1851/1/6 1857/1/6
f 1857/1/6 1851/1/6 1858/1/6
f 1852/1/6 1853/1/6 1859/1/6
f 1859/1/6 1853/1/6 1860/1/6
f 1854/1/6 1855/1/6 1863/1/6
f 1863/1/6 1855/1/6 1864/1/6
f 1860/1/6 1861/1/6 1865/1/6
f 1865/1/6 1861/1/6 1866/1/6
f 1862/1/6 1863/1/6 1869/1/6
f 1869/1/6 1863/1/6 1870/1/6
f 1866/1/6 1867/1/6 1871/1/6
f 1871/1/6 1867/1/6 1872/1/6
f 1868/1/6 1869/1/6 1874/1/6
f 1874/1/6 1869/1/6 1875/1/6
f 1872/1/6 1873/1/6 1876/1/6
f 1876/1/6 1873/1/6 1877/1/6
f 1878/1/6 1879/1/6 1883/1/6
f 1883/1/6 1879/1/6 1884/1/6
f 1884/1/6 1879/1/6 1885/1/6
f 1880/1/6 1881/1/6 1886/1/6
f 1886/1/6 1881/1/6 1887/1/6
f 1887/1/6 1881/1/6 1888/1/6
f 1884/1/6 1885/1/6 1890/1/6
f 1886/1/6 1887/1/6 1890/1/6
f 1885/1/6 1886/1/6 1890/1/6
f 1890/1/6 1887/1/6 1891/1/6
f 1882/1/6 1883/1/6 1893/1/6
f 1893/1/6 1883/1/6 1894/1/6
f 1888/1/6 1889/1/6 1895/1/6
f 1895/1/6 1889/1/6 1896/1/6
f 1892/1/6 1893/1/6 1899/1/6
f 1899/1/6 1893/1/6 1900/1/6
f 1896/1/6 1897/1/6 1901/1/6
f 1901/1/6 1897/1/6 1902/1/6
f 1898/1/6 1899/1/6 1904/1/6
f 1904/1/6 1899/1/6 1905/1/6
f 1884/1/6 1890/1/6 1906/1/6
f 1891/1/6 1887/1/6 1907/1/6
f 1902/1/6 1903/1/6 1908/1/6
f 1908/1/6 1903/1/6 1909/1/6
f 1906/1/6 1907/1/6 1911/1/6
f 1884/1/6 1906/1/6 1911/1/6
f 1911/1/6 1907/1/6 1912/1/6
f 1907/1/6 1887/1/6 1913/1/6
f 1912/1/6 1907/1/6 1913/1/6
f 1913/1/6 1887/1/6 1914/1/6
f 1911/1/6 1912/1/6 1916/1/6
f 1910/1/6 1911/1/6 1916/1/6
f 1916/1/6 1912/1/6 1917/1/6
f 1914/1/6 1915/1/6 1918/1/6
f 1913/1/6 1914/1/6 1918/1/6
f 1918/1/6 1915/1/6 1919/1/6
f 1920/1/6 1921/1/6 1927/1/6
f 1927/1/6 1921/1/6 1928/1/6
f 1928/1/6 1921/1/6 1929/1/6
f 1922/1/6 1923/1/6 1930/1/6
f 1930/1/6 1923/1/6 1931/1/6
f 1931/1/6 1923/1/6 1932/1/6
f 1926/1/6 1927/1/6 1935/1/6
f 1927/1/6 1928/1/6 1935/1/6
f 1935/1/6 1928/1/6 1936/1/6
f 1936/1/6 1928/1/6 1937/1/6
f 1931/1/6 1932/1/6 1938/1/6
f 1932/1/6 1933/1/6 1938/1/6
f 1938/1/6 1933/1/6 1939/1/6
f 1939/1/6 1933/1/6 1940/1/6
f 1935/1/6 1936/1/6 1942/1/6
f 1934/1/6 1935/1/6 1942/1/6
f 1929/1/6 1921/1/6 1943/1/6
f 1922/1/6 1930/1/6 1944/1/6
f 1940/1/6 1941/1/6 1945/1/6
f 1939/1/6 1940/1/6 1945/1/6
f 1934/1/6 1942/1/6 1946/1/6
f 1942/1/6 1943/1/6 1946/1/6
f 1946/1/6 1943/1/6 1947/1/6
f 1924/1/6 1925/1/6 1948/1/6
f 1948/1/6 1925/1/6 1949/1/6
f 1944/1/6 1945/1/6 1950/1/6
f 1945/1/6 1941/1/6 1950/1/6
f 1950/1/6 1941/1/6 1951/1/6
f 1947/1/6 1943/1/6 1952/1/6
f 1943/1/6 1921/1/6 1953/1/6
f 1952/1/6 1943/1/6 1953/1/6
f 1944/1/6 1950/1/6 1954/1/6
f 1922/1/6 1944/1/6 1954/1/6
f 1954/1/6 1950/1/6 1955/1/6
f 1956/1/6 1957/1/6 1961/1/6
f 1958/1/6 1959/1/6 1962/1/6
f 1960/1/6 1961/1/6 1964/1/6
f 1961/1/6 1957/1/6 1965/1/6
f 1964/1/6 1961/1/6 1965/1/6
f 1962/1/6 1963/1/6 1966/1/6
f 1958/1/6 1962/1/6 1966/1/6
f 1966/1/6 1963/1/6 1967/1/6
